%YAML 1.1
%TAG !u! tag:unity3d.com,2011:
--- !u!29 &1
SceneSettings:
  m_ObjectHideFlags: 0
  m_PVSData: 
  m_PVSObjectsArray: []
  m_PVSPortalsArray: []
  m_OcclusionBakeSettings:
    smallestOccluder: 5
    smallestHole: 0.25
    backfaceThreshold: 100
--- !u!104 &2
RenderSettings:
  m_ObjectHideFlags: 0
  serializedVersion: 7
  m_Fog: 0
  m_FogColor: {r: 0.5, g: 0.5, b: 0.5, a: 1}
  m_FogMode: 3
  m_FogDensity: 0.01
  m_LinearFogStart: 0
  m_LinearFogEnd: 300
  m_AmbientSkyColor: {r: 0.2, g: 0.2, b: 0.2, a: 1}
  m_AmbientEquatorColor: {r: 0.2, g: 0.2, b: 0.2, a: 1}
  m_AmbientGroundColor: {r: 0.2, g: 0.2, b: 0.2, a: 1}
  m_AmbientIntensity: 1
  m_AmbientMode: 3
  m_SkyboxMaterial: {fileID: 0}
  m_HaloStrength: 0.5
  m_FlareStrength: 1
  m_FlareFadeSpeed: 3
  m_HaloTexture: {fileID: 0}
  m_SpotCookie: {fileID: 10001, guid: 0000000000000000e000000000000000, type: 0}
  m_DefaultReflectionMode: 0
  m_DefaultReflectionResolution: 128
  m_ReflectionBounces: 1
  m_ReflectionIntensity: 1
  m_CustomReflection: {fileID: 0}
  m_Sun: {fileID: 0}
  m_IndirectSpecularColor: {r: 0, g: 0, b: 0, a: 1}
--- !u!157 &4
LightmapSettings:
  m_ObjectHideFlags: 0
  serializedVersion: 7
  m_GIWorkflowMode: 1
  m_GISettings:
    serializedVersion: 2
    m_BounceScale: 1
    m_IndirectOutputScale: 1
    m_AlbedoBoost: 1
    m_TemporalCoherenceThreshold: 1
    m_EnvironmentLightingMode: 0
    m_EnableBakedLightmaps: 1
    m_EnableRealtimeLightmaps: 0
  m_LightmapEditorSettings:
    serializedVersion: 4
    m_Resolution: 1
    m_BakeResolution: 50
    m_TextureWidth: 1024
    m_TextureHeight: 1024
    m_AO: 1
    m_AOMaxDistance: 1
    m_CompAOExponent: 1
    m_CompAOExponentDirect: 0
    m_Padding: 2
    m_LightmapParameters: {fileID: 0}
    m_LightmapsBakeMode: 1
    m_TextureCompression: 0
    m_DirectLightInLightProbes: 1
    m_FinalGather: 0
    m_FinalGatherFiltering: 1
    m_FinalGatherRayCount: 256
    m_ReflectionCompression: 2
  m_LightingDataAsset: {fileID: 0}
  m_RuntimeCPUUsage: 25
--- !u!196 &5
NavMeshSettings:
  serializedVersion: 2
  m_ObjectHideFlags: 0
  m_BuildSettings:
    serializedVersion: 2
    agentRadius: 0.5
    agentHeight: 2
    agentSlope: 45
    agentClimb: 0.4
    ledgeDropHeight: 0
    maxJumpAcrossDistance: 0
    accuratePlacement: 0
    minRegionArea: 2
    cellSize: 0.16666666
    manualCellSize: 0
  m_NavMeshData: {fileID: 0}
--- !u!1 &16572708
GameObject:
  m_ObjectHideFlags: 0
  m_PrefabParentObject: {fileID: 0}
  m_PrefabInternal: {fileID: 0}
  serializedVersion: 4
  m_Component:
  - 4: {fileID: 16572709}
  - 114: {fileID: 16572710}
  - 114: {fileID: 16572711}
  - 114: {fileID: 16572713}
  - 114: {fileID: 16572712}
  m_Layer: 0
  m_Name: _GameManager
  m_TagString: Untagged
  m_Icon: {fileID: 0}
  m_NavMeshLayer: 0
  m_StaticEditorFlags: 0
  m_IsActive: 1
--- !u!4 &16572709
Transform:
  m_ObjectHideFlags: 0
  m_PrefabParentObject: {fileID: 0}
  m_PrefabInternal: {fileID: 0}
  m_GameObject: {fileID: 16572708}
  m_LocalRotation: {x: 0, y: 0, z: 0, w: 1}
  m_LocalPosition: {x: 0, y: 0, z: 0}
  m_LocalScale: {x: 1, y: 1, z: 1}
  m_LocalEulerAnglesHint: {x: 0, y: 0, z: 0}
  m_Children: []
  m_Father: {fileID: 0}
  m_RootOrder: 0
--- !u!114 &16572710
MonoBehaviour:
  m_ObjectHideFlags: 0
  m_PrefabParentObject: {fileID: 0}
  m_PrefabInternal: {fileID: 0}
  m_GameObject: {fileID: 16572708}
  m_Enabled: 1
  m_EditorHideFlags: 0
  m_Script: {fileID: 11500000, guid: 707e7b368da35e749ba9908c0f89db1d, type: 3}
  m_Name: 
  m_EditorClassIdentifier: 
  salsa3D: {fileID: 363736865}
  audioClips:
  - {fileID: 8300000, guid: c2cbc3191a1532c42adb10eeaf63d255, type: 3}
  - {fileID: 8300000, guid: a5c4dca0f2281ee468c3856dd5fcfaa8, type: 3}
  - {fileID: 8300000, guid: 83dee14080645224bac0bf4c490b99eb, type: 3}
--- !u!114 &16572711
MonoBehaviour:
  m_ObjectHideFlags: 0
  m_PrefabParentObject: {fileID: 0}
  m_PrefabInternal: {fileID: 0}
  m_GameObject: {fileID: 16572708}
  m_Enabled: 1
  m_EditorHideFlags: 0
  m_Script: {fileID: 11500000, guid: 65b8eab5e46561d41bae26f2f664082c, type: 3}
  m_Name: 
  m_EditorClassIdentifier: 
  randomEyes3D: {fileID: 363736864}
  mainCam: {fileID: 1644389375}
  target: {fileID: 419400662}
--- !u!114 &16572712
MonoBehaviour:
  m_ObjectHideFlags: 0
  m_PrefabParentObject: {fileID: 0}
  m_PrefabInternal: {fileID: 0}
  m_GameObject: {fileID: 16572708}
  m_Enabled: 1
  m_EditorHideFlags: 0
  m_Script: {fileID: 11500000, guid: b538479d243970241a310f6b9a58bbdb, type: 3}
  m_Name: 
  m_EditorClassIdentifier: 
--- !u!114 &16572713
MonoBehaviour:
  m_ObjectHideFlags: 0
  m_PrefabParentObject: {fileID: 0}
  m_PrefabInternal: {fileID: 0}
  m_GameObject: {fileID: 16572708}
  m_Enabled: 1
  m_EditorHideFlags: 0
  m_Script: {fileID: 11500000, guid: 3eae2f204cd451f4a9945440fd35824a, type: 3}
  m_Name: 
  m_EditorClassIdentifier: 
--- !u!1 &80783860
GameObject:
  m_ObjectHideFlags: 0
  m_PrefabParentObject: {fileID: 0}
  m_PrefabInternal: {fileID: 0}
  serializedVersion: 4
  m_Component:
  - 4: {fileID: 80783862}
  - 114: {fileID: 80783861}
  m_Layer: 0
  m_Name: RandomEyes3D_Eye_Position
  m_TagString: Untagged
  m_Icon: {fileID: 0}
  m_NavMeshLayer: 0
  m_StaticEditorFlags: 0
  m_IsActive: 1
--- !u!114 &80783861
MonoBehaviour:
  m_ObjectHideFlags: 0
  m_PrefabParentObject: {fileID: 0}
  m_PrefabInternal: {fileID: 0}
  m_GameObject: {fileID: 80783860}
  m_Enabled: 1
  m_EditorHideFlags: 0
  m_Script: {fileID: -818653955, guid: 7a255d2e87aae364fbd819c455094253, type: 3}
  m_Name: 
  m_EditorClassIdentifier: 
  showGizmo: 1
--- !u!4 &80783862
Transform:
  m_ObjectHideFlags: 0
  m_PrefabParentObject: {fileID: 0}
  m_PrefabInternal: {fileID: 0}
  m_GameObject: {fileID: 80783860}
  m_LocalRotation: {x: 0.7071069, y: 0, z: 0, w: 0.70710677}
  m_LocalPosition: {x: -0.000000089127546, y: -1.0195005, z: 1.3800554}
  m_LocalScale: {x: 1, y: 0.99999976, z: 0.99999976}
  m_LocalEulerAnglesHint: {x: 0, y: 0, z: 0}
  m_Children: []
  m_Father: {fileID: 363736863}
  m_RootOrder: 0
--- !u!1 &363736862
GameObject:
  m_ObjectHideFlags: 0
  m_PrefabParentObject: {fileID: 100000, guid: c71488b66a74a6c4c93c8eebcff13aa9, type: 3}
  m_PrefabInternal: {fileID: 1692545031}
  serializedVersion: 4
  m_Component:
  - 4: {fileID: 363736863}
  - 137: {fileID: 363736868}
  - 95: {fileID: 363736867}
  - 82: {fileID: 363736866}
  - 114: {fileID: 363736864}
  - 114: {fileID: 363736865}
  m_Layer: 0
  m_Name: boxHead
  m_TagString: Untagged
  m_Icon: {fileID: 0}
  m_NavMeshLayer: 0
  m_StaticEditorFlags: 0
  m_IsActive: 1
--- !u!4 &363736863
Transform:
  m_ObjectHideFlags: 0
  m_PrefabParentObject: {fileID: 400000, guid: c71488b66a74a6c4c93c8eebcff13aa9, type: 3}
  m_PrefabInternal: {fileID: 1692545031}
  m_GameObject: {fileID: 363736862}
  m_LocalRotation: {x: 0.000000030908623, y: 0.7071068, z: 0.7071068, w: -0.000000030908623}
  m_LocalPosition: {x: -0, y: 0, z: 0}
  m_LocalScale: {x: 1, y: 1, z: 1}
  m_LocalEulerAnglesHint: {x: 0, y: 0, z: 0}
  m_Children:
  - {fileID: 80783862}
  m_Father: {fileID: 0}
  m_RootOrder: 1
--- !u!114 &363736864
MonoBehaviour:
  m_ObjectHideFlags: 0
  m_PrefabParentObject: {fileID: 0}
  m_PrefabInternal: {fileID: 0}
  m_GameObject: {fileID: 363736862}
  m_Enabled: 1
  m_EditorHideFlags: 0
  m_Script: {fileID: 1624661579, guid: 7a255d2e87aae364fbd819c455094253, type: 3}
  m_Name: 
  m_EditorClassIdentifier: 
  salsa3D: {fileID: 0}
  skinnedMeshRenderer: {fileID: 363736868}
  prevSkinnedMeshRenderer: {fileID: 363736868}
  getSkndMshRndr: 0
  blendShapes:
  - saySmall
  - sayMedium
  - sayLarge
  - lookUp
  - lookDown
  - lookLeft
  - lookRight
  - blink
  lookUpIndex: 3
  lookDownIndex: 4
  lookLeftIndex: 5
  lookRightIndex: 6
  blinkIndex: 7
  lookPosition: 4
  lookAmount:
    lookUp: 0
    lookDown: 0
    lookLeft: 0
    lookRight: 0
    blink: 0
  randomEyes: 1
  maxRandomInterval: 2
  blendSpeed: 10
  rangeOfMotion: 80
  blinkDuration: 0.05
  blinkSpeed: 20
  openMax: 0
  closeMax: 100
  eyePosition: {fileID: 80783860}
  eyePosVerify: {fileID: 80783860}
  lookTarget: {fileID: 0}
  lookSensitivity: 4
  targetAffinity: 0
  targetAffinityPercentage: 0.7
  invertTracking: 0
  trackBehind: 0
  blink: 1
  maxBlinkInterval: 3
  broadcast: 1
  broadcastReceiversCount: 1
  prevBroadcastReceiversCount: 1
  expandBroadcast: 1
  broadcastReceivers:
  - {fileID: 16572708}
  propagateToChildren: 0
  broadcastNeeded: 0
  broadcastCS: 0
  broadcastCSReceiversCount: 0
  prevBroadcastCSReceiversCount: 0
  expandBroadcastCS: 0
  broadcastCSReceivers: []
  propagateToChildrenCS: 0
  selectedCustomShape: 0
  noneShapeIndex: 0
  excludeEyeShapes: 1
  dynamicCustomShapes:
  - None
  customShapeCount: 0
  expandCustomShapes: 0
  customShapes: []
  randomCustomShapes: 1
  maxCustomShapeInterval: 3
  randomCSBlendSpeedMin: 0.75
  randomCSBlendSpeedMax: 6
  randomCSRangeOfMotionMin: 20
  randomCSRangeOfMotionMax: 60
  randomCSDurationMin: 0.25
  randomCSDurationMax: 3.5
  csNotRandomToggle: 0
  useCustomShapesOnly: 0
  showEyeShapes: 1
  showTracking: 1
  showEyeProps: 1
  showCustom: 1
  showBroadcast: 1
  showBroadcastCS: 1
  expandShapeGroups: 0
  groups: []
  shapeGroupCount: 0
  targetAffinityPrev: 0
--- !u!114 &363736865
MonoBehaviour:
  m_ObjectHideFlags: 0
  m_PrefabParentObject: {fileID: 0}
  m_PrefabInternal: {fileID: 0}
  m_GameObject: {fileID: 363736862}
  m_Enabled: 1
  m_EditorHideFlags: 0
  m_Script: {fileID: 1976067524, guid: 7a255d2e87aae364fbd819c455094253, type: 3}
  m_Name: 
  m_EditorClassIdentifier: 
  skinnedMeshRenderer: {fileID: 363736868}
  prevSkinnedMeshRenderer: {fileID: 363736868}
  getSkndMshRndr: 0
  audioSrc: {fileID: 0}
  audioClip: {fileID: 0}
  blendShapes:
  - saySmall
  - sayMedium
  - sayLarge
  - lookUp
  - lookDown
  - lookLeft
  - lookRight
  - blink
  saySmallIndex: 0
  sayMediumIndex: 1
  sayLargeIndex: 2
  saySmallTrigger: 0.0005
  sayMediumTrigger: 0.003
  sayLargeTrigger: 0.0055
  audioUpdateDelay: 0.08
  blendSpeed: 10
  rangeOfMotion: 100
  isTalking: 0
  prevIsTalking: 0
  broadcast: 1
  broadcastReceiversCount: 1
  expandBroadcast: 1
  broadcastReceivers:
  - {fileID: 16572708}
  propagateToChildren: 0
  average: 0
  say: 
  sayIndex: 0
  sayAmount:
    saySmall: 0
    sayMedium: 0
    sayLarge: 0
--- !u!82 &363736866
AudioSource:
  m_ObjectHideFlags: 0
  m_PrefabParentObject: {fileID: 0}
  m_PrefabInternal: {fileID: 0}
  m_GameObject: {fileID: 363736862}
  m_Enabled: 1
  serializedVersion: 4
  OutputAudioMixerGroup: {fileID: 0}
  m_audioClip: {fileID: 8300000, guid: 8ac78b7c7f3cd114b8dfaed038e44f2a, type: 3}
  m_PlayOnAwake: 0
  m_Volume: 1
  m_Pitch: 1
  Loop: 0
  Mute: 0
  Spatialize: 0
  Priority: 128
  DopplerLevel: 1
  MinDistance: 1
  MaxDistance: 500
  Pan2D: 0
  rolloffMode: 1
  BypassEffects: 0
  BypassListenerEffects: 0
  BypassReverbZones: 0
  rolloffCustomCurve:
    serializedVersion: 2
    m_Curve:
    - time: 0
      value: 1
      inSlope: 0
      outSlope: 0
      tangentMode: 0
    - time: 1
      value: 0
      inSlope: 0
      outSlope: 0
      tangentMode: 0
    m_PreInfinity: 2
    m_PostInfinity: 2
    m_RotationOrder: 4
  panLevelCustomCurve:
    serializedVersion: 2
    m_Curve:
    - time: 0
      value: 1
      inSlope: 0
      outSlope: 0
      tangentMode: 0
    m_PreInfinity: 2
    m_PostInfinity: 2
    m_RotationOrder: 4
  spreadCustomCurve:
    serializedVersion: 2
    m_Curve:
    - time: 0
      value: 0
      inSlope: 0
      outSlope: 0
      tangentMode: 0
    m_PreInfinity: 2
    m_PostInfinity: 2
    m_RotationOrder: 4
  reverbZoneMixCustomCurve:
    serializedVersion: 2
    m_Curve:
    - time: 0
      value: 1
      inSlope: 0
      outSlope: 0
      tangentMode: 0
    m_PreInfinity: 2
    m_PostInfinity: 2
    m_RotationOrder: 4
--- !u!95 &363736867
Animator:
  serializedVersion: 3
  m_ObjectHideFlags: 0
  m_PrefabParentObject: {fileID: 9500000, guid: c71488b66a74a6c4c93c8eebcff13aa9,
    type: 3}
  m_PrefabInternal: {fileID: 1692545031}
  m_GameObject: {fileID: 363736862}
  m_Enabled: 1
  m_Avatar: {fileID: 9000000, guid: c71488b66a74a6c4c93c8eebcff13aa9, type: 3}
  m_Controller: {fileID: 0}
  m_CullingMode: 1
  m_UpdateMode: 0
  m_ApplyRootMotion: 0
  m_LinearVelocityBlending: 0
  m_WarningMessage: 
  m_HasTransformHierarchy: 1
  m_AllowConstantClipSamplingOptimization: 1
--- !u!137 &363736868
SkinnedMeshRenderer:
  m_ObjectHideFlags: 0
  m_PrefabParentObject: {fileID: 13700000, guid: c71488b66a74a6c4c93c8eebcff13aa9,
    type: 3}
  m_PrefabInternal: {fileID: 1692545031}
  m_GameObject: {fileID: 363736862}
  m_Enabled: 1
  m_CastShadows: 1
  m_ReceiveShadows: 1
  m_MotionVectors: 1
  m_LightProbeUsage: 1
  m_ReflectionProbeUsage: 1
  m_Materials:
  - {fileID: 2100000, guid: 6b1e5670b07a1e64588584d96a8fed1b, type: 2}
  - {fileID: 2100000, guid: bc1ec33175643844e9b0d07f1061126c, type: 2}
  - {fileID: 2100000, guid: ebf104d5d939c61488afcb91dce1bb98, type: 2}
  - {fileID: 2100000, guid: 47d3eeb81291fc944bb3eae841ddb17f, type: 2}
  - {fileID: 2100000, guid: 8f4620a968d86c048855ade893caba05, type: 2}
  - {fileID: 2100000, guid: 1f241d9a8e5ae864e9c5aca190fa3350, type: 2}
  m_SubsetIndices: 
  m_StaticBatchRoot: {fileID: 0}
  m_ProbeAnchor: {fileID: 0}
  m_LightProbeVolumeOverride: {fileID: 0}
  m_ScaleInLightmap: 1
  m_PreserveUVs: 0
  m_IgnoreNormalsForChartDetection: 0
  m_ImportantGI: 0
  m_SelectedWireframeHidden: 0
  m_MinimumChartSize: 4
  m_AutoUVMaxDistance: 0.5
  m_AutoUVMaxAngle: 89
  m_LightmapParameters: {fileID: 0}
  m_SortingLayerID: 0
  m_SortingOrder: 0
  serializedVersion: 2
  m_Quality: 0
  m_UpdateWhenOffscreen: 1
  m_SkinnedMotionVectors: 1
  m_Mesh: {fileID: 4300000, guid: c71488b66a74a6c4c93c8eebcff13aa9, type: 3}
  m_Bones: []
  m_BlendShapeWeights: []
  m_RootBone: {fileID: 0}
  m_AABB:
    m_Center: {x: 0, y: -0.07782006, z: 0.99999654}
    m_Extent: {x: 1, y: 1.0778201, z: 1.0000035}
  m_DirtyAABB: 0
--- !u!1 &419400661
GameObject:
  m_ObjectHideFlags: 0
  m_PrefabParentObject: {fileID: 0}
  m_PrefabInternal: {fileID: 0}
  serializedVersion: 4
  m_Component:
  - 4: {fileID: 419400663}
  - 212: {fileID: 419400662}
  m_Layer: 0
  m_Name: Target
  m_TagString: Untagged
  m_Icon: {fileID: 0}
  m_NavMeshLayer: 0
  m_StaticEditorFlags: 0
  m_IsActive: 1
--- !u!212 &419400662
SpriteRenderer:
  m_ObjectHideFlags: 0
  m_PrefabParentObject: {fileID: 0}
  m_PrefabInternal: {fileID: 0}
  m_GameObject: {fileID: 419400661}
  m_Enabled: 1
  m_CastShadows: 0
  m_ReceiveShadows: 0
  m_MotionVectors: 1
  m_LightProbeUsage: 0
  m_ReflectionProbeUsage: 0
  m_Materials:
  - {fileID: 10754, guid: 0000000000000000f000000000000000, type: 0}
  m_SubsetIndices: 
  m_StaticBatchRoot: {fileID: 0}
  m_ProbeAnchor: {fileID: 0}
  m_LightProbeVolumeOverride: {fileID: 0}
  m_ScaleInLightmap: 1
  m_PreserveUVs: 0
  m_IgnoreNormalsForChartDetection: 0
  m_ImportantGI: 0
  m_SelectedWireframeHidden: 1
  m_MinimumChartSize: 4
  m_AutoUVMaxDistance: 0.5
  m_AutoUVMaxAngle: 89
  m_LightmapParameters: {fileID: 0}
  m_SortingLayerID: 0
  m_SortingOrder: 0
  m_Sprite: {fileID: 21300000, guid: 3b33a47d516bfd64387abc3ac4484a6a, type: 3}
  m_Color: {r: 1, g: 1, b: 1, a: 1}
  m_FlipX: 0
  m_FlipY: 0
--- !u!4 &419400663
Transform:
  m_ObjectHideFlags: 0
  m_PrefabParentObject: {fileID: 0}
  m_PrefabInternal: {fileID: 0}
  m_GameObject: {fileID: 419400661}
  m_LocalRotation: {x: 0, y: 0, z: 0, w: 1}
  m_LocalPosition: {x: 0.86842996, y: 0.6402876, z: -2}
  m_LocalScale: {x: 0.05, y: 0.05, z: 0.05}
  m_LocalEulerAnglesHint: {x: 0, y: 0, z: 0}
  m_Children: []
  m_Father: {fileID: 0}
  m_RootOrder: 4
--- !u!1 &454894736
GameObject:
  m_ObjectHideFlags: 0
  m_PrefabParentObject: {fileID: 0}
  m_PrefabInternal: {fileID: 0}
  serializedVersion: 4
  m_Component:
  - 4: {fileID: 454894738}
  - 108: {fileID: 454894737}
  m_Layer: 0
  m_Name: Directional light
  m_TagString: Untagged
  m_Icon: {fileID: 0}
  m_NavMeshLayer: 0
  m_StaticEditorFlags: 0
  m_IsActive: 1
--- !u!108 &454894737
Light:
  m_ObjectHideFlags: 0
  m_PrefabParentObject: {fileID: 0}
  m_PrefabInternal: {fileID: 0}
  m_GameObject: {fileID: 454894736}
  m_Enabled: 1
  serializedVersion: 7
  m_Type: 1
  m_Color: {r: 1, g: 1, b: 1, a: 1}
  m_Intensity: 2
  m_Range: 10
  m_SpotAngle: 30
  m_CookieSize: 10
  m_Shadows:
    m_Type: 0
    m_Resolution: -1
    m_CustomResolution: -1
    m_Strength: 1
    m_Bias: 0.05
    m_NormalBias: 0.4
    m_NearPlane: 0.2
  m_Cookie: {fileID: 0}
  m_DrawHalo: 0
  m_Flare: {fileID: 0}
  m_RenderMode: 0
  m_CullingMask:
    serializedVersion: 2
    m_Bits: 4294967295
  m_Lightmapping: 1
  m_AreaSize: {x: 1, y: 1}
  m_BounceIntensity: 1
  m_ShadowRadius: 0
  m_ShadowAngle: 0
--- !u!4 &454894738
Transform:
  m_ObjectHideFlags: 0
  m_PrefabParentObject: {fileID: 0}
  m_PrefabInternal: {fileID: 0}
  m_GameObject: {fileID: 454894736}
  m_LocalRotation: {x: 0.40821794, y: -0.23456973, z: 0.10938166, w: 0.8754261}
  m_LocalPosition: {x: -0.007475078, y: 3.8974223, z: -0.00001335144}
  m_LocalScale: {x: 1, y: 1, z: 1}
  m_LocalEulerAnglesHint: {x: 0, y: 0, z: 0}
  m_Children: []
  m_Father: {fileID: 0}
  m_RootOrder: 2
--- !u!1 &1644389371
GameObject:
  m_ObjectHideFlags: 0
  m_PrefabParentObject: {fileID: 0}
  m_PrefabInternal: {fileID: 0}
  serializedVersion: 4
  m_Component:
  - 4: {fileID: 1644389376}
  - 20: {fileID: 1644389375}
  - 92: {fileID: 1644389374}
  - 124: {fileID: 1644389373}
  - 81: {fileID: 1644389372}
  m_Layer: 0
  m_Name: Main Camera
  m_TagString: MainCamera
  m_Icon: {fileID: 0}
  m_NavMeshLayer: 0
  m_StaticEditorFlags: 0
  m_IsActive: 1
--- !u!81 &1644389372
AudioListener:
  m_ObjectHideFlags: 0
  m_PrefabParentObject: {fileID: 0}
  m_PrefabInternal: {fileID: 0}
  m_GameObject: {fileID: 1644389371}
  m_Enabled: 1
--- !u!124 &1644389373
Behaviour:
  m_ObjectHideFlags: 0
  m_PrefabParentObject: {fileID: 0}
  m_PrefabInternal: {fileID: 0}
  m_GameObject: {fileID: 1644389371}
  m_Enabled: 1
--- !u!92 &1644389374
Behaviour:
  m_ObjectHideFlags: 0
  m_PrefabParentObject: {fileID: 0}
  m_PrefabInternal: {fileID: 0}
  m_GameObject: {fileID: 1644389371}
  m_Enabled: 1
--- !u!20 &1644389375
Camera:
  m_ObjectHideFlags: 0
  m_PrefabParentObject: {fileID: 0}
  m_PrefabInternal: {fileID: 0}
  m_GameObject: {fileID: 1644389371}
  m_Enabled: 1
  serializedVersion: 2
  m_ClearFlags: 1
  m_BackGroundColor: {r: 0.23529412, g: 0.23529412, b: 0.23529412, a: 0.019607844}
  m_NormalizedViewPortRect:
    serializedVersion: 2
    x: 0
    y: 0
    width: 1
    height: 1
  near clip plane: 0.3
  far clip plane: 1000
  field of view: 60
  orthographic: 0
  orthographic size: 5
  m_Depth: -1
  m_CullingMask:
    serializedVersion: 2
    m_Bits: 4294967295
  m_RenderingPath: -1
  m_TargetTexture: {fileID: 0}
  m_TargetDisplay: 0
  m_TargetEye: 3
  m_HDR: 0
  m_OcclusionCulling: 1
  m_StereoConvergence: 10
  m_StereoSeparation: 0.022
  m_StereoMirrorMode: 0
--- !u!4 &1644389376
Transform:
  m_ObjectHideFlags: 0
  m_PrefabParentObject: {fileID: 0}
  m_PrefabInternal: {fileID: 0}
  m_GameObject: {fileID: 1644389371}
  m_LocalRotation: {x: 0, y: 0, z: 0, w: 1}
  m_LocalPosition: {x: 0, y: 1, z: -4.5}
  m_LocalScale: {x: 1, y: 1, z: 1}
  m_LocalEulerAnglesHint: {x: 0, y: 0, z: 0}
  m_Children: []
  m_Father: {fileID: 0}
  m_RootOrder: 3
--- !u!1001 &1692545031
Prefab:
  m_ObjectHideFlags: 0
  serializedVersion: 2
  m_Modification:
    m_TransformParent: {fileID: 0}
    m_Modifications:
    - target: {fileID: 400000, guid: c71488b66a74a6c4c93c8eebcff13aa9, type: 3}
      propertyPath: m_LocalPosition.x
      value: -0
      objectReference: {fileID: 0}
    - target: {fileID: 400000, guid: c71488b66a74a6c4c93c8eebcff13aa9, type: 3}
      propertyPath: m_LocalPosition.y
      value: 0
      objectReference: {fileID: 0}
    - target: {fileID: 400000, guid: c71488b66a74a6c4c93c8eebcff13aa9, type: 3}
      propertyPath: m_LocalPosition.z
      value: 0
      objectReference: {fileID: 0}
    - target: {fileID: 400000, guid: c71488b66a74a6c4c93c8eebcff13aa9, type: 3}
      propertyPath: m_LocalRotation.x
      value: 3.09086232e-08
      objectReference: {fileID: 0}
    - target: {fileID: 400000, guid: c71488b66a74a6c4c93c8eebcff13aa9, type: 3}
      propertyPath: m_LocalRotation.y
      value: .707106829
      objectReference: {fileID: 0}
    - target: {fileID: 400000, guid: c71488b66a74a6c4c93c8eebcff13aa9, type: 3}
      propertyPath: m_LocalRotation.z
      value: .707106829
      objectReference: {fileID: 0}
    - target: {fileID: 400000, guid: c71488b66a74a6c4c93c8eebcff13aa9, type: 3}
      propertyPath: m_LocalRotation.w
      value: -3.09086232e-08
      objectReference: {fileID: 0}
    - target: {fileID: 13700000, guid: c71488b66a74a6c4c93c8eebcff13aa9, type: 3}
      propertyPath: m_AABB.m_Center.y
      value: -.0778200626
      objectReference: {fileID: 0}
    - target: {fileID: 13700000, guid: c71488b66a74a6c4c93c8eebcff13aa9, type: 3}
      propertyPath: m_AABB.m_Center.z
      value: .999996543
      objectReference: {fileID: 0}
    - target: {fileID: 13700000, guid: c71488b66a74a6c4c93c8eebcff13aa9, type: 3}
      propertyPath: m_AABB.m_Extent.x
      value: 1
      objectReference: {fileID: 0}
    - target: {fileID: 13700000, guid: c71488b66a74a6c4c93c8eebcff13aa9, type: 3}
      propertyPath: m_AABB.m_Extent.y
      value: 1.07782006
      objectReference: {fileID: 0}
    - target: {fileID: 13700000, guid: c71488b66a74a6c4c93c8eebcff13aa9, type: 3}
      propertyPath: m_AABB.m_Extent.z
      value: 1.00000346
      objectReference: {fileID: 0}
    - target: {fileID: 13700000, guid: c71488b66a74a6c4c93c8eebcff13aa9, type: 3}
      propertyPath: m_DirtyAABB
      value: 0
      objectReference: {fileID: 0}
    m_RemovedComponents: []
  m_ParentPrefab: {fileID: 100100000, guid: c71488b66a74a6c4c93c8eebcff13aa9, type: 3}
  m_RootGameObject: {fileID: 363736862}
  m_IsPrefabParent: 0
