%YAML 1.1
%TAG !u! tag:unity3d.com,2011:
--- !u!29 &1
SceneSettings:
  m_ObjectHideFlags: 0
  m_PVSData: 
  m_PVSObjectsArray: []
  m_PVSPortalsArray: []
  m_OcclusionBakeSettings:
    smallestOccluder: 5
    smallestHole: 0.25
    backfaceThreshold: 100
--- !u!104 &2
RenderSettings:
  m_ObjectHideFlags: 0
  serializedVersion: 7
  m_Fog: 0
  m_FogColor: {r: 0.5, g: 0.5, b: 0.5, a: 1}
  m_FogMode: 3
  m_FogDensity: 0.01
  m_LinearFogStart: 0
  m_LinearFogEnd: 300
  m_AmbientSkyColor: {r: 0.2, g: 0.2, b: 0.2, a: 1}
  m_AmbientEquatorColor: {r: 0.2, g: 0.2, b: 0.2, a: 1}
  m_AmbientGroundColor: {r: 0.2, g: 0.2, b: 0.2, a: 1}
  m_AmbientIntensity: 1
  m_AmbientMode: 3
  m_SkyboxMaterial: {fileID: 0}
  m_HaloStrength: 0.5
  m_FlareStrength: 1
  m_FlareFadeSpeed: 3
  m_HaloTexture: {fileID: 0}
  m_SpotCookie: {fileID: 10001, guid: 0000000000000000e000000000000000, type: 0}
  m_DefaultReflectionMode: 0
  m_DefaultReflectionResolution: 128
  m_ReflectionBounces: 1
  m_ReflectionIntensity: 1
  m_CustomReflection: {fileID: 0}
  m_Sun: {fileID: 0}
  m_IndirectSpecularColor: {r: 0, g: 0, b: 0, a: 1}
--- !u!157 &4
LightmapSettings:
  m_ObjectHideFlags: 0
  serializedVersion: 7
  m_GIWorkflowMode: 1
  m_GISettings:
    serializedVersion: 2
    m_BounceScale: 1
    m_IndirectOutputScale: 1
    m_AlbedoBoost: 1
    m_TemporalCoherenceThreshold: 1
    m_EnvironmentLightingMode: 0
    m_EnableBakedLightmaps: 1
    m_EnableRealtimeLightmaps: 0
  m_LightmapEditorSettings:
    serializedVersion: 4
    m_Resolution: 1
    m_BakeResolution: 50
    m_TextureWidth: 1024
    m_TextureHeight: 1024
    m_AO: 1
    m_AOMaxDistance: 1
    m_CompAOExponent: 1
    m_CompAOExponentDirect: 0
    m_Padding: 2
    m_LightmapParameters: {fileID: 0}
    m_LightmapsBakeMode: 1
    m_TextureCompression: 0
    m_DirectLightInLightProbes: 1
    m_FinalGather: 0
    m_FinalGatherFiltering: 1
    m_FinalGatherRayCount: 256
    m_ReflectionCompression: 2
  m_LightingDataAsset: {fileID: 0}
  m_RuntimeCPUUsage: 25
--- !u!196 &5
NavMeshSettings:
  serializedVersion: 2
  m_ObjectHideFlags: 0
  m_BuildSettings:
    serializedVersion: 2
    agentRadius: 0.5
    agentHeight: 2
    agentSlope: 45
    agentClimb: 0.4
    ledgeDropHeight: 0
    maxJumpAcrossDistance: 0
    accuratePlacement: 0
    minRegionArea: 2
    cellSize: 0.16666666
    manualCellSize: 0
  m_NavMeshData: {fileID: 0}
--- !u!1 &31257824
GameObject:
  m_ObjectHideFlags: 0
  m_PrefabParentObject: {fileID: 0}
  m_PrefabInternal: {fileID: 0}
  serializedVersion: 4
  m_Component:
  - 4: {fileID: 31257826}
  - 114: {fileID: 31257825}
  m_Layer: 0
  m_Name: RandomEyes3D_Eye_Position
  m_TagString: Untagged
  m_Icon: {fileID: 0}
  m_NavMeshLayer: 0
  m_StaticEditorFlags: 0
  m_IsActive: 1
--- !u!114 &31257825
MonoBehaviour:
  m_ObjectHideFlags: 0
  m_PrefabParentObject: {fileID: 0}
  m_PrefabInternal: {fileID: 0}
  m_GameObject: {fileID: 31257824}
  m_Enabled: 1
  m_EditorHideFlags: 0
  m_Script: {fileID: -818653955, guid: 7a255d2e87aae364fbd819c455094253, type: 3}
  m_Name: 
  m_EditorClassIdentifier: 
  showGizmo: 1
--- !u!4 &31257826
Transform:
  m_ObjectHideFlags: 0
  m_PrefabParentObject: {fileID: 0}
  m_PrefabInternal: {fileID: 0}
  m_GameObject: {fileID: 31257824}
  m_LocalRotation: {x: 0, y: -1, z: 0, w: -0.00000004371139}
  m_LocalPosition: {x: 0, y: 0.15390873, z: 0}
  m_LocalScale: {x: 1, y: 1, z: 1}
  m_LocalEulerAnglesHint: {x: 0, y: 0, z: 0}
  m_Children: []
  m_Father: {fileID: 215215665}
  m_RootOrder: 0
--- !u!1 &215215664
GameObject:
  m_ObjectHideFlags: 0
  m_PrefabParentObject: {fileID: 100000, guid: bff4e6f47076d2b4a972a5f8a45ca45d, type: 3}
  m_PrefabInternal: {fileID: 790522256}
  serializedVersion: 4
  m_Component:
  - 4: {fileID: 215215665}
  - 137: {fileID: 215215670}
  - 95: {fileID: 215215669}
  - 82: {fileID: 215215668}
  - 114: {fileID: 215215666}
  - 114: {fileID: 215215667}
  m_Layer: 0
  m_Name: toonBoxHead
  m_TagString: Untagged
  m_Icon: {fileID: 0}
  m_NavMeshLayer: 0
  m_StaticEditorFlags: 0
  m_IsActive: 1
--- !u!4 &215215665
Transform:
  m_ObjectHideFlags: 0
  m_PrefabParentObject: {fileID: 400000, guid: bff4e6f47076d2b4a972a5f8a45ca45d, type: 3}
  m_PrefabInternal: {fileID: 790522256}
  m_GameObject: {fileID: 215215664}
  m_LocalRotation: {x: 0, y: 1, z: 0, w: -0.00000004371139}
  m_LocalPosition: {x: -0, y: 0, z: 0}
  m_LocalScale: {x: 1, y: 1, z: 1}
  m_LocalEulerAnglesHint: {x: 0, y: 0, z: 0}
  m_Children:
  - {fileID: 31257826}
  m_Father: {fileID: 0}
  m_RootOrder: 0
--- !u!114 &215215666
MonoBehaviour:
  m_ObjectHideFlags: 0
  m_PrefabParentObject: {fileID: 0}
  m_PrefabInternal: {fileID: 0}
  m_GameObject: {fileID: 215215664}
  m_Enabled: 1
  m_EditorHideFlags: 0
  m_Script: {fileID: 1624661579, guid: 7a255d2e87aae364fbd819c455094253, type: 3}
  m_Name: 
  m_EditorClassIdentifier: 
  salsa3D: {fileID: 0}
  skinnedMeshRenderer: {fileID: 215215670}
  prevSkinnedMeshRenderer: {fileID: 215215670}
  getSkndMshRndr: 0
  blendShapes:
  - saySmall
  - sayMedium
  - sayLarge
  - lookUp
  - lookDown
  - lookLeft
  - lookRight
  - blink
  - smile
  - frown
  - smallOh
  - largeOh
  - happy
  - sad
  - sheepish
  - angry
  - determined
  - devious
  - shriek
  lookUpIndex: 3
  lookDownIndex: 4
  lookLeftIndex: 5
  lookRightIndex: 6
  blinkIndex: 7
  lookPosition: 0
  lookAmount:
    lookUp: 0
    lookDown: 0
    lookLeft: 0
    lookRight: 0
    blink: 0
  randomEyes: 1
  maxRandomInterval: 2
  blendSpeed: 10
  rangeOfMotion: 50
  blinkDuration: 0.05
  blinkSpeed: 20
  openMax: 10
  closeMax: 100
  eyePosition: {fileID: 31257824}
  eyePosVerify: {fileID: 31257824}
  lookTarget: {fileID: 0}
  lookSensitivity: 4
  targetAffinity: 0
  targetAffinityPercentage: 0.7
  invertTracking: 0
  trackBehind: 0
  blink: 1
  maxBlinkInterval: 3
  broadcast: 1
  broadcastReceiversCount: 1
  prevBroadcastReceiversCount: 1
  expandBroadcast: 1
  broadcastReceivers:
  - {fileID: 1522286609}
  propagateToChildren: 0
  broadcastNeeded: 0
  broadcastCS: 1
  broadcastCSReceiversCount: 1
  prevBroadcastCSReceiversCount: 1
  expandBroadcastCS: 1
  broadcastCSReceivers:
  - {fileID: 1522286609}
  propagateToChildrenCS: 0
  selectedCustomShape: 9
  noneShapeIndex: 9
  excludeEyeShapes: 1
  dynamicCustomShapes:
  - smile
  - frown
  - smallOh
  - sad
  - sheepish
  - angry
  - determined
  - devious
  - shriek
  - None
  customShapeCount: 9
  expandCustomShapes: 1
  customShapes:
  - shapeIndex: 8
    shapeName: smile
    overrideOn: 0
    notRandom: 0
    isOn: 0
    blendSpeed: 1
    rangeOfMotion: 75
  - shapeIndex: 9
    shapeName: frown
    overrideOn: 0
    notRandom: 0
    isOn: 0
    blendSpeed: 1
    rangeOfMotion: 75
  - shapeIndex: 10
    shapeName: smallOh
    overrideOn: 0
    notRandom: 0
    isOn: 0
    blendSpeed: 1
    rangeOfMotion: 75
  - shapeIndex: 13
    shapeName: sad
    overrideOn: 0
    notRandom: 0
    isOn: 0
    blendSpeed: 1
    rangeOfMotion: 75
  - shapeIndex: 14
    shapeName: sheepish
    overrideOn: 0
    notRandom: 0
    isOn: 0
    blendSpeed: 1
    rangeOfMotion: 75
  - shapeIndex: 15
    shapeName: angry
    overrideOn: 0
    notRandom: 0
    isOn: 0
    blendSpeed: 1
    rangeOfMotion: 75
  - shapeIndex: 16
    shapeName: determined
    overrideOn: 0
    notRandom: 0
    isOn: 0
    blendSpeed: 1
    rangeOfMotion: 75
  - shapeIndex: 17
    shapeName: devious
    overrideOn: 0
    notRandom: 0
    isOn: 0
    blendSpeed: 1
    rangeOfMotion: 75
  - shapeIndex: 18
    shapeName: shriek
    overrideOn: 0
    notRandom: 0
    isOn: 0
    blendSpeed: 1
    rangeOfMotion: 75
  randomCustomShapes: 1
  maxCustomShapeInterval: 3
  randomCSBlendSpeedMin: 0.25
  randomCSBlendSpeedMax: 4
  randomCSRangeOfMotionMin: 20
  randomCSRangeOfMotionMax: 60
  randomCSDurationMin: 0.25
  randomCSDurationMax: 3.5
  csNotRandomToggle: 0
  useCustomShapesOnly: 0
  showEyeShapes: 1
  showTracking: 1
  showEyeProps: 1
  showCustom: 1
  showBroadcast: 1
  showBroadcastCS: 1
  expandShapeGroups: 0
  groups: []
  shapeGroupCount: 0
  targetAffinityPrev: 0
--- !u!114 &215215667
MonoBehaviour:
  m_ObjectHideFlags: 0
  m_PrefabParentObject: {fileID: 0}
  m_PrefabInternal: {fileID: 0}
  m_GameObject: {fileID: 215215664}
  m_Enabled: 1
  m_EditorHideFlags: 0
  m_Script: {fileID: 1976067524, guid: 7a255d2e87aae364fbd819c455094253, type: 3}
  m_Name: 
  m_EditorClassIdentifier: 
  skinnedMeshRenderer: {fileID: 215215670}
  prevSkinnedMeshRenderer: {fileID: 215215670}
  getSkndMshRndr: 0
  audioSrc: {fileID: 0}
  audioClip: {fileID: 8300000, guid: 1ce656a2e5c71cf418036d69763111db, type: 3}
  blendShapes:
  - saySmall
  - sayMedium
  - sayLarge
  - lookUp
  - lookDown
  - lookLeft
  - lookRight
  - blink
  - smile
  - frown
  - smallOh
  - largeOh
  - happy
  - sad
  - sheepish
  - angry
  - determined
  - devious
  - shriek
  saySmallIndex: 0
  sayMediumIndex: 1
  sayLargeIndex: 2
  saySmallTrigger: 0.0005
  sayMediumTrigger: 0.003
  sayLargeTrigger: 0.0055
  audioUpdateDelay: 0.08
  blendSpeed: 20
  rangeOfMotion: 100
  isTalking: 0
  prevIsTalking: 0
  broadcast: 1
  broadcastReceiversCount: 1
  expandBroadcast: 1
  broadcastReceivers:
  - {fileID: 1522286609}
  propagateToChildren: 0
  average: 0
  say: 
  sayIndex: 0
  sayAmount:
    saySmall: 0
    sayMedium: 0
    sayLarge: 0
--- !u!82 &215215668
AudioSource:
  m_ObjectHideFlags: 0
  m_PrefabParentObject: {fileID: 0}
  m_PrefabInternal: {fileID: 0}
  m_GameObject: {fileID: 215215664}
  m_Enabled: 1
  serializedVersion: 4
  OutputAudioMixerGroup: {fileID: 0}
  m_audioClip: {fileID: 8300000, guid: 1ce656a2e5c71cf418036d69763111db, type: 3}
  m_PlayOnAwake: 1
  m_Volume: 1
  m_Pitch: 1
  Loop: 0
  Mute: 0
  Spatialize: 0
  Priority: 128
  DopplerLevel: 1
  MinDistance: 1
  MaxDistance: 500
  Pan2D: 0
  rolloffMode: 0
  BypassEffects: 0
  BypassListenerEffects: 0
  BypassReverbZones: 0
  rolloffCustomCurve:
    serializedVersion: 2
    m_Curve:
    - time: 0
      value: 1
      inSlope: 0
      outSlope: 0
      tangentMode: 0
    - time: 1
      value: 0
      inSlope: 0
      outSlope: 0
      tangentMode: 0
    m_PreInfinity: 2
    m_PostInfinity: 2
    m_RotationOrder: 4
  panLevelCustomCurve:
    serializedVersion: 2
    m_Curve:
    - time: 0
      value: 1
      inSlope: 0
      outSlope: 0
      tangentMode: 0
    m_PreInfinity: 2
    m_PostInfinity: 2
    m_RotationOrder: 4
  spreadCustomCurve:
    serializedVersion: 2
    m_Curve:
    - time: 0
      value: 0
      inSlope: 0
      outSlope: 0
      tangentMode: 0
    m_PreInfinity: 2
    m_PostInfinity: 2
    m_RotationOrder: 4
  reverbZoneMixCustomCurve:
    serializedVersion: 2
    m_Curve:
    - time: 0
      value: 1
      inSlope: 0
      outSlope: 0
      tangentMode: 0
    m_PreInfinity: 2
    m_PostInfinity: 2
    m_RotationOrder: 4
--- !u!95 &215215669
Animator:
  serializedVersion: 3
  m_ObjectHideFlags: 0
  m_PrefabParentObject: {fileID: 9500000, guid: bff4e6f47076d2b4a972a5f8a45ca45d,
    type: 3}
  m_PrefabInternal: {fileID: 790522256}
  m_GameObject: {fileID: 215215664}
  m_Enabled: 1
  m_Avatar: {fileID: 9000000, guid: bff4e6f47076d2b4a972a5f8a45ca45d, type: 3}
  m_Controller: {fileID: 0}
  m_CullingMode: 1
  m_UpdateMode: 0
  m_ApplyRootMotion: 0
  m_LinearVelocityBlending: 0
  m_WarningMessage: 
  m_HasTransformHierarchy: 1
  m_AllowConstantClipSamplingOptimization: 1
--- !u!137 &215215670
SkinnedMeshRenderer:
  m_ObjectHideFlags: 0
  m_PrefabParentObject: {fileID: 13700000, guid: bff4e6f47076d2b4a972a5f8a45ca45d,
    type: 3}
  m_PrefabInternal: {fileID: 790522256}
  m_GameObject: {fileID: 215215664}
  m_Enabled: 1
  m_CastShadows: 1
  m_ReceiveShadows: 1
  m_MotionVectors: 1
  m_LightProbeUsage: 1
  m_ReflectionProbeUsage: 1
  m_Materials:
  - {fileID: 2100000, guid: b07f5de7f3fd35f4b8922788a1de1260, type: 2}
  - {fileID: 2100000, guid: 89e5cf3416e821d4c9accf18bd73d425, type: 2}
  m_SubsetIndices: 
  m_StaticBatchRoot: {fileID: 0}
  m_ProbeAnchor: {fileID: 0}
  m_LightProbeVolumeOverride: {fileID: 0}
  m_ScaleInLightmap: 1
  m_PreserveUVs: 0
  m_IgnoreNormalsForChartDetection: 0
  m_ImportantGI: 0
  m_SelectedWireframeHidden: 0
  m_MinimumChartSize: 4
  m_AutoUVMaxDistance: 0.5
  m_AutoUVMaxAngle: 89
  m_LightmapParameters: {fileID: 0}
  m_SortingLayerID: 0
  m_SortingOrder: 0
  serializedVersion: 2
  m_Quality: 0
  m_UpdateWhenOffscreen: 1
  m_SkinnedMotionVectors: 1
  m_Mesh: {fileID: 4300000, guid: bff4e6f47076d2b4a972a5f8a45ca45d, type: 3}
  m_Bones: []
  m_BlendShapeWeights: []
  m_RootBone: {fileID: 0}
  m_AABB:
    m_Center: {x: 0, y: 0, z: 0.0367945}
    m_Extent: {x: 0.9, y: 0.9, z: 0.1717945}
  m_DirtyAABB: 0
--- !u!1 &452292892
GameObject:
  m_ObjectHideFlags: 0
  m_PrefabParentObject: {fileID: 0}
  m_PrefabInternal: {fileID: 0}
  serializedVersion: 4
  m_Component:
  - 4: {fileID: 452292897}
  - 20: {fileID: 452292896}
  - 92: {fileID: 452292895}
  - 124: {fileID: 452292894}
  - 81: {fileID: 452292893}
  m_Layer: 0
  m_Name: Main Camera
  m_TagString: MainCamera
  m_Icon: {fileID: 0}
  m_NavMeshLayer: 0
  m_StaticEditorFlags: 0
  m_IsActive: 1
--- !u!81 &452292893
AudioListener:
  m_ObjectHideFlags: 0
  m_PrefabParentObject: {fileID: 0}
  m_PrefabInternal: {fileID: 0}
  m_GameObject: {fileID: 452292892}
  m_Enabled: 1
--- !u!124 &452292894
Behaviour:
  m_ObjectHideFlags: 0
  m_PrefabParentObject: {fileID: 0}
  m_PrefabInternal: {fileID: 0}
  m_GameObject: {fileID: 452292892}
  m_Enabled: 1
--- !u!92 &452292895
Behaviour:
  m_ObjectHideFlags: 0
  m_PrefabParentObject: {fileID: 0}
  m_PrefabInternal: {fileID: 0}
  m_GameObject: {fileID: 452292892}
  m_Enabled: 1
--- !u!20 &452292896
Camera:
  m_ObjectHideFlags: 0
  m_PrefabParentObject: {fileID: 0}
  m_PrefabInternal: {fileID: 0}
  m_GameObject: {fileID: 452292892}
  m_Enabled: 1
  serializedVersion: 2
  m_ClearFlags: 1
  m_BackGroundColor: {r: 0.19215687, g: 0.3019608, b: 0.4745098, a: 0.019607844}
  m_NormalizedViewPortRect:
    serializedVersion: 2
    x: 0
    y: 0
    width: 1
    height: 1
  near clip plane: 0.01
  far clip plane: 1000
  field of view: 60
  orthographic: 0
  orthographic size: 5
  m_Depth: -1
  m_CullingMask:
    serializedVersion: 2
    m_Bits: 4294967295
  m_RenderingPath: -1
  m_TargetTexture: {fileID: 0}
  m_TargetDisplay: 0
  m_TargetEye: 3
  m_HDR: 0
  m_OcclusionCulling: 1
  m_StereoConvergence: 10
  m_StereoSeparation: 0.022
  m_StereoMirrorMode: 0
--- !u!4 &452292897
Transform:
  m_ObjectHideFlags: 0
  m_PrefabParentObject: {fileID: 0}
  m_PrefabInternal: {fileID: 0}
  m_GameObject: {fileID: 452292892}
  m_LocalRotation: {x: 0, y: 0, z: 0, w: 1}
  m_LocalPosition: {x: 0, y: 0, z: -2.189489}
  m_LocalScale: {x: 1, y: 1, z: 1}
  m_LocalEulerAnglesHint: {x: 0, y: 0, z: 0}
  m_Children: []
  m_Father: {fileID: 0}
  m_RootOrder: 3
--- !u!1001 &790522256
Prefab:
  m_ObjectHideFlags: 0
  serializedVersion: 2
  m_Modification:
    m_TransformParent: {fileID: 0}
    m_Modifications:
    - target: {fileID: 400000, guid: bff4e6f47076d2b4a972a5f8a45ca45d, type: 3}
      propertyPath: m_LocalPosition.x
      value: -0
      objectReference: {fileID: 0}
    - target: {fileID: 400000, guid: bff4e6f47076d2b4a972a5f8a45ca45d, type: 3}
      propertyPath: m_LocalPosition.y
      value: 0
      objectReference: {fileID: 0}
    - target: {fileID: 400000, guid: bff4e6f47076d2b4a972a5f8a45ca45d, type: 3}
      propertyPath: m_LocalPosition.z
      value: 0
      objectReference: {fileID: 0}
    - target: {fileID: 400000, guid: bff4e6f47076d2b4a972a5f8a45ca45d, type: 3}
      propertyPath: m_LocalRotation.x
      value: 0
      objectReference: {fileID: 0}
    - target: {fileID: 400000, guid: bff4e6f47076d2b4a972a5f8a45ca45d, type: 3}
      propertyPath: m_LocalRotation.y
      value: 1
      objectReference: {fileID: 0}
    - target: {fileID: 400000, guid: bff4e6f47076d2b4a972a5f8a45ca45d, type: 3}
      propertyPath: m_LocalRotation.z
      value: 0
      objectReference: {fileID: 0}
    - target: {fileID: 400000, guid: bff4e6f47076d2b4a972a5f8a45ca45d, type: 3}
      propertyPath: m_LocalRotation.w
      value: -4.37113883e-08
      objectReference: {fileID: 0}
    - target: {fileID: 13700000, guid: bff4e6f47076d2b4a972a5f8a45ca45d, type: 3}
      propertyPath: m_AABB.m_Center.z
      value: .0367944986
      objectReference: {fileID: 0}
    - target: {fileID: 13700000, guid: bff4e6f47076d2b4a972a5f8a45ca45d, type: 3}
      propertyPath: m_AABB.m_Extent.x
      value: .899999976
      objectReference: {fileID: 0}
    - target: {fileID: 13700000, guid: bff4e6f47076d2b4a972a5f8a45ca45d, type: 3}
      propertyPath: m_AABB.m_Extent.y
      value: .899999976
      objectReference: {fileID: 0}
    - target: {fileID: 13700000, guid: bff4e6f47076d2b4a972a5f8a45ca45d, type: 3}
      propertyPath: m_AABB.m_Extent.z
      value: .171794504
      objectReference: {fileID: 0}
    - target: {fileID: 13700000, guid: bff4e6f47076d2b4a972a5f8a45ca45d, type: 3}
      propertyPath: m_DirtyAABB
      value: 0
      objectReference: {fileID: 0}
    m_RemovedComponents: []
  m_ParentPrefab: {fileID: 100100000, guid: bff4e6f47076d2b4a972a5f8a45ca45d, type: 3}
  m_RootGameObject: {fileID: 215215664}
  m_IsPrefabParent: 0
--- !u!1 &1027139742
GameObject:
  m_ObjectHideFlags: 0
  m_PrefabParentObject: {fileID: 0}
  m_PrefabInternal: {fileID: 0}
  serializedVersion: 4
  m_Component:
  - 4: {fileID: 1027139744}
  - 108: {fileID: 1027139743}
  m_Layer: 0
  m_Name: Directional light
  m_TagString: Untagged
  m_Icon: {fileID: 0}
  m_NavMeshLayer: 0
  m_StaticEditorFlags: 0
  m_IsActive: 1
--- !u!108 &1027139743
Light:
  m_ObjectHideFlags: 0
  m_PrefabParentObject: {fileID: 0}
  m_PrefabInternal: {fileID: 0}
  m_GameObject: {fileID: 1027139742}
  m_Enabled: 1
  serializedVersion: 7
  m_Type: 1
  m_Color: {r: 1, g: 1, b: 1, a: 1}
  m_Intensity: 1.6
  m_Range: 10
  m_SpotAngle: 30
  m_CookieSize: 10
  m_Shadows:
    m_Type: 0
    m_Resolution: -1
    m_CustomResolution: -1
    m_Strength: 1
    m_Bias: 0.05
    m_NormalBias: 0.4
    m_NearPlane: 0.2
  m_Cookie: {fileID: 0}
  m_DrawHalo: 0
  m_Flare: {fileID: 0}
  m_RenderMode: 0
  m_CullingMask:
    serializedVersion: 2
    m_Bits: 4294967295
  m_Lightmapping: 1
  m_AreaSize: {x: 1, y: 1}
  m_BounceIntensity: 1
  m_ShadowRadius: 0
  m_ShadowAngle: 0
--- !u!4 &1027139744
Transform:
  m_ObjectHideFlags: 0
  m_PrefabParentObject: {fileID: 0}
  m_PrefabInternal: {fileID: 0}
  m_GameObject: {fileID: 1027139742}
  m_LocalRotation: {x: 0.42253077, y: -0.018448278, z: 0.008602553, w: 0.90612}
  m_LocalPosition: {x: 0, y: 10, z: 0}
  m_LocalScale: {x: 1, y: 1, z: 1}
  m_LocalEulerAnglesHint: {x: 0, y: 0, z: 0}
  m_Children: []
  m_Father: {fileID: 0}
  m_RootOrder: 2
--- !u!1 &1522286609
GameObject:
  m_ObjectHideFlags: 0
  m_PrefabParentObject: {fileID: 0}
  m_PrefabInternal: {fileID: 0}
  serializedVersion: 4
  m_Component:
  - 4: {fileID: 1522286610}
  - 114: {fileID: 1522286612}
  - 114: {fileID: 1522286613}
  m_Layer: 0
  m_Name: _GameManager
  m_TagString: Untagged
  m_Icon: {fileID: 0}
  m_NavMeshLayer: 0
  m_StaticEditorFlags: 0
  m_IsActive: 1
--- !u!4 &1522286610
Transform:
  m_ObjectHideFlags: 0
  m_PrefabParentObject: {fileID: 0}
  m_PrefabInternal: {fileID: 0}
  m_GameObject: {fileID: 1522286609}
  m_LocalRotation: {x: 0, y: 0, z: 0, w: 1}
  m_LocalPosition: {x: 0, y: 0, z: 0}
  m_LocalScale: {x: 1, y: 1, z: 1}
  m_LocalEulerAnglesHint: {x: 0, y: 0, z: 0}
  m_Children: []
  m_Father: {fileID: 0}
  m_RootOrder: 1
--- !u!114 &1522286612
MonoBehaviour:
  m_ObjectHideFlags: 0
  m_PrefabParentObject: {fileID: 0}
  m_PrefabInternal: {fileID: 0}
  m_GameObject: {fileID: 1522286609}
  m_Enabled: 1
  m_EditorHideFlags: 0
  m_Script: {fileID: 11500000, guid: 3bd98514d482c614cb6739086f1a2b02, type: 3}
  m_Name: 
  m_EditorClassIdentifier: 
--- !u!114 &1522286613
MonoBehaviour:
  m_ObjectHideFlags: 0
  m_PrefabParentObject: {fileID: 0}
  m_PrefabInternal: {fileID: 0}
  m_GameObject: {fileID: 1522286609}
  m_Enabled: 1
  m_EditorHideFlags: 0
  m_Script: {fileID: 11500000, guid: 9c8912328fcce7046be11d0225eb1e10, type: 3}
  m_Name: 
  m_EditorClassIdentifier: 
