%YAML 1.1
%TAG !u! tag:unity3d.com,2011:
--- !u!29 &1
SceneSettings:
  m_ObjectHideFlags: 0
  m_PVSData: 
  m_PVSObjectsArray: []
  m_PVSPortalsArray: []
  m_OcclusionBakeSettings:
    smallestOccluder: 5
    smallestHole: 0.25
    backfaceThreshold: 100
--- !u!104 &2
RenderSettings:
  m_ObjectHideFlags: 0
  serializedVersion: 7
  m_Fog: 0
  m_FogColor: {r: 0.5, g: 0.5, b: 0.5, a: 1}
  m_FogMode: 3
  m_FogDensity: 0.01
  m_LinearFogStart: 0
  m_LinearFogEnd: 300
  m_AmbientSkyColor: {r: 0.2, g: 0.2, b: 0.2, a: 1}
  m_AmbientEquatorColor: {r: 0.2, g: 0.2, b: 0.2, a: 1}
  m_AmbientGroundColor: {r: 0.2, g: 0.2, b: 0.2, a: 1}
  m_AmbientIntensity: 1
  m_AmbientMode: 3
  m_SkyboxMaterial: {fileID: 0}
  m_HaloStrength: 0.5
  m_FlareStrength: 1
  m_FlareFadeSpeed: 3
  m_HaloTexture: {fileID: 0}
  m_SpotCookie: {fileID: 10001, guid: 0000000000000000e000000000000000, type: 0}
  m_DefaultReflectionMode: 0
  m_DefaultReflectionResolution: 128
  m_ReflectionBounces: 1
  m_ReflectionIntensity: 1
  m_CustomReflection: {fileID: 0}
  m_Sun: {fileID: 0}
  m_IndirectSpecularColor: {r: 0, g: 0, b: 0, a: 1}
--- !u!157 &4
LightmapSettings:
  m_ObjectHideFlags: 0
  serializedVersion: 7
  m_GIWorkflowMode: 1
  m_GISettings:
    serializedVersion: 2
    m_BounceScale: 1
    m_IndirectOutputScale: 1
    m_AlbedoBoost: 1
    m_TemporalCoherenceThreshold: 1
    m_EnvironmentLightingMode: 0
    m_EnableBakedLightmaps: 1
    m_EnableRealtimeLightmaps: 0
  m_LightmapEditorSettings:
    serializedVersion: 4
    m_Resolution: 1
    m_BakeResolution: 50
    m_TextureWidth: 1024
    m_TextureHeight: 1024
    m_AO: 1
    m_AOMaxDistance: 1
    m_CompAOExponent: 1
    m_CompAOExponentDirect: 0
    m_Padding: 2
    m_LightmapParameters: {fileID: 0}
    m_LightmapsBakeMode: 1
    m_TextureCompression: 0
    m_DirectLightInLightProbes: 1
    m_FinalGather: 0
    m_FinalGatherFiltering: 1
    m_FinalGatherRayCount: 256
    m_ReflectionCompression: 2
  m_LightingDataAsset: {fileID: 0}
  m_RuntimeCPUUsage: 25
--- !u!196 &5
NavMeshSettings:
  serializedVersion: 2
  m_ObjectHideFlags: 0
  m_BuildSettings:
    serializedVersion: 2
    agentRadius: 0.5
    agentHeight: 2
    agentSlope: 45
    agentClimb: 0.4
    ledgeDropHeight: 0
    maxJumpAcrossDistance: 0
    accuratePlacement: 0
    minRegionArea: 2
    cellSize: 0.16666666
    manualCellSize: 0
  m_NavMeshData: {fileID: 0}
--- !u!1001 &263939796
Prefab:
  m_ObjectHideFlags: 0
  serializedVersion: 2
  m_Modification:
    m_TransformParent: {fileID: 0}
    m_Modifications:
    - target: {fileID: 400000, guid: c71488b66a74a6c4c93c8eebcff13aa9, type: 3}
      propertyPath: m_LocalPosition.x
      value: -0
      objectReference: {fileID: 0}
    - target: {fileID: 400000, guid: c71488b66a74a6c4c93c8eebcff13aa9, type: 3}
      propertyPath: m_LocalPosition.y
      value: 0
      objectReference: {fileID: 0}
    - target: {fileID: 400000, guid: c71488b66a74a6c4c93c8eebcff13aa9, type: 3}
      propertyPath: m_LocalPosition.z
      value: 0
      objectReference: {fileID: 0}
    - target: {fileID: 400000, guid: c71488b66a74a6c4c93c8eebcff13aa9, type: 3}
      propertyPath: m_LocalRotation.x
      value: 3.09086232e-08
      objectReference: {fileID: 0}
    - target: {fileID: 400000, guid: c71488b66a74a6c4c93c8eebcff13aa9, type: 3}
      propertyPath: m_LocalRotation.y
      value: .707106829
      objectReference: {fileID: 0}
    - target: {fileID: 400000, guid: c71488b66a74a6c4c93c8eebcff13aa9, type: 3}
      propertyPath: m_LocalRotation.z
      value: .707106829
      objectReference: {fileID: 0}
    - target: {fileID: 400000, guid: c71488b66a74a6c4c93c8eebcff13aa9, type: 3}
      propertyPath: m_LocalRotation.w
      value: -3.09086232e-08
      objectReference: {fileID: 0}
    - target: {fileID: 13700000, guid: c71488b66a74a6c4c93c8eebcff13aa9, type: 3}
      propertyPath: m_AABB.m_Center.y
      value: -.0778200626
      objectReference: {fileID: 0}
    - target: {fileID: 13700000, guid: c71488b66a74a6c4c93c8eebcff13aa9, type: 3}
      propertyPath: m_AABB.m_Center.z
      value: .999996543
      objectReference: {fileID: 0}
    - target: {fileID: 13700000, guid: c71488b66a74a6c4c93c8eebcff13aa9, type: 3}
      propertyPath: m_AABB.m_Extent.x
      value: 1
      objectReference: {fileID: 0}
    - target: {fileID: 13700000, guid: c71488b66a74a6c4c93c8eebcff13aa9, type: 3}
      propertyPath: m_AABB.m_Extent.y
      value: 1.07782006
      objectReference: {fileID: 0}
    - target: {fileID: 13700000, guid: c71488b66a74a6c4c93c8eebcff13aa9, type: 3}
      propertyPath: m_AABB.m_Extent.z
      value: 1.00000346
      objectReference: {fileID: 0}
    - target: {fileID: 13700000, guid: c71488b66a74a6c4c93c8eebcff13aa9, type: 3}
      propertyPath: m_DirtyAABB
      value: 0
      objectReference: {fileID: 0}
    m_RemovedComponents: []
  m_ParentPrefab: {fileID: 100100000, guid: c71488b66a74a6c4c93c8eebcff13aa9, type: 3}
  m_RootGameObject: {fileID: 1897698389}
  m_IsPrefabParent: 0
--- !u!1 &1542552644
GameObject:
  m_ObjectHideFlags: 0
  m_PrefabParentObject: {fileID: 0}
  m_PrefabInternal: {fileID: 0}
  serializedVersion: 4
  m_Component:
  - 4: {fileID: 1542552646}
  - 114: {fileID: 1542552645}
  m_Layer: 0
  m_Name: _GameManager
  m_TagString: Untagged
  m_Icon: {fileID: 0}
  m_NavMeshLayer: 0
  m_StaticEditorFlags: 0
  m_IsActive: 1
--- !u!114 &1542552645
MonoBehaviour:
  m_ObjectHideFlags: 0
  m_PrefabParentObject: {fileID: 0}
  m_PrefabInternal: {fileID: 0}
  m_GameObject: {fileID: 1542552644}
  m_Enabled: 1
  m_EditorHideFlags: 0
  m_Script: {fileID: 11500000, guid: b538479d243970241a310f6b9a58bbdb, type: 3}
  m_Name: 
  m_EditorClassIdentifier: 
--- !u!4 &1542552646
Transform:
  m_ObjectHideFlags: 0
  m_PrefabParentObject: {fileID: 0}
  m_PrefabInternal: {fileID: 0}
  m_GameObject: {fileID: 1542552644}
  m_LocalRotation: {x: 0, y: 0, z: 0, w: 1}
  m_LocalPosition: {x: 0, y: 0, z: 0}
  m_LocalScale: {x: 1, y: 1, z: 1}
  m_LocalEulerAnglesHint: {x: 0, y: 0, z: 0}
  m_Children: []
  m_Father: {fileID: 0}
  m_RootOrder: 0
--- !u!1 &1897698389
GameObject:
  m_ObjectHideFlags: 0
  m_PrefabParentObject: {fileID: 100000, guid: c71488b66a74a6c4c93c8eebcff13aa9, type: 3}
  m_PrefabInternal: {fileID: 263939796}
  serializedVersion: 4
  m_Component:
  - 4: {fileID: 1897698390}
  - 137: {fileID: 1897698393}
  - 95: {fileID: 1897698392}
  - 114: {fileID: 1897698391}
  m_Layer: 0
  m_Name: boxHead
  m_TagString: Untagged
  m_Icon: {fileID: 0}
  m_NavMeshLayer: 0
  m_StaticEditorFlags: 0
  m_IsActive: 1
--- !u!4 &1897698390
Transform:
  m_ObjectHideFlags: 0
  m_PrefabParentObject: {fileID: 400000, guid: c71488b66a74a6c4c93c8eebcff13aa9, type: 3}
  m_PrefabInternal: {fileID: 263939796}
  m_GameObject: {fileID: 1897698389}
  m_LocalRotation: {x: 0.000000030908623, y: 0.7071068, z: 0.7071068, w: -0.000000030908623}
  m_LocalPosition: {x: -0, y: 0, z: 0}
  m_LocalScale: {x: 1, y: 1, z: 1}
  m_LocalEulerAnglesHint: {x: 0, y: 0, z: 0}
  m_Children:
  - {fileID: 1930302428}
  m_Father: {fileID: 0}
  m_RootOrder: 1
--- !u!114 &1897698391
MonoBehaviour:
  m_ObjectHideFlags: 0
  m_PrefabParentObject: {fileID: 0}
  m_PrefabInternal: {fileID: 0}
  m_GameObject: {fileID: 1897698389}
  m_Enabled: 1
  m_EditorHideFlags: 0
  m_Script: {fileID: 1624661579, guid: 7a255d2e87aae364fbd819c455094253, type: 3}
  m_Name: 
  m_EditorClassIdentifier: 
  salsa3D: {fileID: 0}
  skinnedMeshRenderer: {fileID: 1897698393}
  prevSkinnedMeshRenderer: {fileID: 0}
  getSkndMshRndr: 0
  blendShapes:
  - saySmall
  - sayMedium
  - sayLarge
  - lookUp
  - lookDown
  - lookLeft
  - lookRight
  - blink
  lookUpIndex: 3
  lookDownIndex: 4
  lookLeftIndex: 5
  lookRightIndex: 6
  blinkIndex: 7
  lookPosition: 4
  lookAmount:
    lookUp: 0
    lookDown: 0
    lookLeft: 0
    lookRight: 0
    blink: 0
  randomEyes: 1
  maxRandomInterval: 2
  blendSpeed: 10
  rangeOfMotion: 50
  blinkDuration: 0.05
  blinkSpeed: 20
  openMax: 10
  closeMax: 100
  eyePosition: {fileID: 1930302426}
  eyePosVerify: {fileID: 1930302426}
  lookTarget: {fileID: 0}
  lookSensitivity: 4
  targetAffinity: 0
  targetAffinityPercentage: 0.7
  invertTracking: 0
  trackBehind: 0
  blink: 1
  maxBlinkInterval: 3
  broadcast: 1
  broadcastReceiversCount: 1
  prevBroadcastReceiversCount: 0
  expandBroadcast: 1
  broadcastReceivers:
  - {fileID: 1542552644}
  propagateToChildren: 0
  broadcastNeeded: 0
  broadcastCS: 0
  broadcastCSReceiversCount: 0
  prevBroadcastCSReceiversCount: 0
  expandBroadcastCS: 0
  broadcastCSReceivers: []
  propagateToChildrenCS: 0
  selectedCustomShape: 0
  noneShapeIndex: 0
  excludeEyeShapes: 1
  dynamicCustomShapes:
  - None
  customShapeCount: 0
  expandCustomShapes: 0
  customShapes: []
  randomCustomShapes: 1
  maxCustomShapeInterval: 3
  randomCSBlendSpeedMin: 0.75
  randomCSBlendSpeedMax: 6
  randomCSRangeOfMotionMin: 20
  randomCSRangeOfMotionMax: 60
  randomCSDurationMin: 0.25
  randomCSDurationMax: 3.5
  csNotRandomToggle: 0
  useCustomShapesOnly: 0
  showEyeShapes: 1
  showTracking: 1
  showEyeProps: 1
  showCustom: 1
  showBroadcast: 1
  showBroadcastCS: 1
  expandShapeGroups: 0
  groups: []
  shapeGroupCount: 0
  targetAffinityPrev: 0
--- !u!95 &1897698392
Animator:
  serializedVersion: 3
  m_ObjectHideFlags: 0
  m_PrefabParentObject: {fileID: 9500000, guid: c71488b66a74a6c4c93c8eebcff13aa9,
    type: 3}
  m_PrefabInternal: {fileID: 263939796}
  m_GameObject: {fileID: 1897698389}
  m_Enabled: 1
  m_Avatar: {fileID: 9000000, guid: c71488b66a74a6c4c93c8eebcff13aa9, type: 3}
  m_Controller: {fileID: 0}
  m_CullingMode: 1
  m_UpdateMode: 0
  m_ApplyRootMotion: 0
  m_LinearVelocityBlending: 0
  m_WarningMessage: 
  m_HasTransformHierarchy: 1
  m_AllowConstantClipSamplingOptimization: 1
--- !u!137 &1897698393
SkinnedMeshRenderer:
  m_ObjectHideFlags: 0
  m_PrefabParentObject: {fileID: 13700000, guid: c71488b66a74a6c4c93c8eebcff13aa9,
    type: 3}
  m_PrefabInternal: {fileID: 263939796}
  m_GameObject: {fileID: 1897698389}
  m_Enabled: 1
  m_CastShadows: 1
  m_ReceiveShadows: 1
  m_MotionVectors: 1
  m_LightProbeUsage: 1
  m_ReflectionProbeUsage: 1
  m_Materials:
  - {fileID: 2100000, guid: 6b1e5670b07a1e64588584d96a8fed1b, type: 2}
  - {fileID: 2100000, guid: bc1ec33175643844e9b0d07f1061126c, type: 2}
  - {fileID: 2100000, guid: ebf104d5d939c61488afcb91dce1bb98, type: 2}
  - {fileID: 2100000, guid: 47d3eeb81291fc944bb3eae841ddb17f, type: 2}
  - {fileID: 2100000, guid: 8f4620a968d86c048855ade893caba05, type: 2}
  - {fileID: 2100000, guid: 1f241d9a8e5ae864e9c5aca190fa3350, type: 2}
  m_SubsetIndices: 
  m_StaticBatchRoot: {fileID: 0}
  m_ProbeAnchor: {fileID: 0}
  m_LightProbeVolumeOverride: {fileID: 0}
  m_ScaleInLightmap: 1
  m_PreserveUVs: 0
  m_IgnoreNormalsForChartDetection: 0
  m_ImportantGI: 0
  m_SelectedWireframeHidden: 0
  m_MinimumChartSize: 4
  m_AutoUVMaxDistance: 0.5
  m_AutoUVMaxAngle: 89
  m_LightmapParameters: {fileID: 0}
  m_SortingLayerID: 0
  m_SortingOrder: 0
  serializedVersion: 2
  m_Quality: 0
  m_UpdateWhenOffscreen: 1
  m_SkinnedMotionVectors: 1
  m_Mesh: {fileID: 4300000, guid: c71488b66a74a6c4c93c8eebcff13aa9, type: 3}
  m_Bones: []
  m_BlendShapeWeights: []
  m_RootBone: {fileID: 0}
  m_AABB:
    m_Center: {x: 0, y: -0.07782006, z: 0.99999654}
    m_Extent: {x: 1, y: 1.0778201, z: 1.0000035}
  m_DirtyAABB: 0
--- !u!1 &1914210310
GameObject:
  m_ObjectHideFlags: 0
  m_PrefabParentObject: {fileID: 0}
  m_PrefabInternal: {fileID: 0}
  serializedVersion: 4
  m_Component:
  - 4: {fileID: 1914210315}
  - 20: {fileID: 1914210314}
  - 92: {fileID: 1914210313}
  - 124: {fileID: 1914210312}
  - 81: {fileID: 1914210311}
  m_Layer: 0
  m_Name: Main Camera
  m_TagString: MainCamera
  m_Icon: {fileID: 0}
  m_NavMeshLayer: 0
  m_StaticEditorFlags: 0
  m_IsActive: 1
--- !u!81 &1914210311
AudioListener:
  m_ObjectHideFlags: 0
  m_PrefabParentObject: {fileID: 0}
  m_PrefabInternal: {fileID: 0}
  m_GameObject: {fileID: 1914210310}
  m_Enabled: 1
--- !u!124 &1914210312
Behaviour:
  m_ObjectHideFlags: 0
  m_PrefabParentObject: {fileID: 0}
  m_PrefabInternal: {fileID: 0}
  m_GameObject: {fileID: 1914210310}
  m_Enabled: 1
--- !u!92 &1914210313
Behaviour:
  m_ObjectHideFlags: 0
  m_PrefabParentObject: {fileID: 0}
  m_PrefabInternal: {fileID: 0}
  m_GameObject: {fileID: 1914210310}
  m_Enabled: 1
--- !u!20 &1914210314
Camera:
  m_ObjectHideFlags: 0
  m_PrefabParentObject: {fileID: 0}
  m_PrefabInternal: {fileID: 0}
  m_GameObject: {fileID: 1914210310}
  m_Enabled: 1
  serializedVersion: 2
  m_ClearFlags: 1
  m_BackGroundColor: {r: 0.23529412, g: 0.23529412, b: 0.23529412, a: 0.019607844}
  m_NormalizedViewPortRect:
    serializedVersion: 2
    x: 0
    y: 0
    width: 1
    height: 1
  near clip plane: 0.3
  far clip plane: 1000
  field of view: 60
  orthographic: 0
  orthographic size: 5
  m_Depth: -1
  m_CullingMask:
    serializedVersion: 2
    m_Bits: 4294967295
  m_RenderingPath: -1
  m_TargetTexture: {fileID: 0}
  m_TargetDisplay: 0
  m_TargetEye: 3
  m_HDR: 0
  m_OcclusionCulling: 1
  m_StereoConvergence: 10
  m_StereoSeparation: 0.022
  m_StereoMirrorMode: 0
--- !u!4 &1914210315
Transform:
  m_ObjectHideFlags: 0
  m_PrefabParentObject: {fileID: 0}
  m_PrefabInternal: {fileID: 0}
  m_GameObject: {fileID: 1914210310}
  m_LocalRotation: {x: 0, y: 0, z: 0, w: 1}
  m_LocalPosition: {x: 0, y: 1, z: -3.5208483}
  m_LocalScale: {x: 1, y: 1, z: 1}
  m_LocalEulerAnglesHint: {x: 0, y: 0, z: 0}
  m_Children: []
  m_Father: {fileID: 0}
  m_RootOrder: 3
--- !u!1 &1930302426
GameObject:
  m_ObjectHideFlags: 0
  m_PrefabParentObject: {fileID: 0}
  m_PrefabInternal: {fileID: 0}
  serializedVersion: 4
  m_Component:
  - 4: {fileID: 1930302428}
  - 114: {fileID: 1930302427}
  m_Layer: 0
  m_Name: RandomEyes3D_Eye_Position
  m_TagString: Untagged
  m_Icon: {fileID: 0}
  m_NavMeshLayer: 0
  m_StaticEditorFlags: 0
  m_IsActive: 1
--- !u!114 &1930302427
MonoBehaviour:
  m_ObjectHideFlags: 0
  m_PrefabParentObject: {fileID: 0}
  m_PrefabInternal: {fileID: 0}
  m_GameObject: {fileID: 1930302426}
  m_Enabled: 1
  m_EditorHideFlags: 0
  m_Script: {fileID: -818653955, guid: 7a255d2e87aae364fbd819c455094253, type: 3}
  m_Name: 
  m_EditorClassIdentifier: 
  showGizmo: 1
--- !u!4 &1930302428
Transform:
  m_ObjectHideFlags: 0
  m_PrefabParentObject: {fileID: 0}
  m_PrefabInternal: {fileID: 0}
  m_GameObject: {fileID: 1930302426}
  m_LocalRotation: {x: -0.7071069, y: 7.276639e-16, z: 7.276639e-16, w: -0.70710677}
  m_LocalPosition: {x: 0, y: -1.0345849, z: 1.3866298}
  m_LocalScale: {x: 1, y: 1, z: 1}
  m_LocalEulerAnglesHint: {x: 0, y: 0, z: 0}
  m_Children: []
  m_Father: {fileID: 1897698390}
  m_RootOrder: 0
--- !u!1 &2003445513
GameObject:
  m_ObjectHideFlags: 0
  m_PrefabParentObject: {fileID: 0}
  m_PrefabInternal: {fileID: 0}
  serializedVersion: 4
  m_Component:
  - 4: {fileID: 2003445515}
  - 108: {fileID: 2003445514}
  m_Layer: 0
  m_Name: Directional light
  m_TagString: Untagged
  m_Icon: {fileID: 0}
  m_NavMeshLayer: 0
  m_StaticEditorFlags: 0
  m_IsActive: 1
--- !u!108 &2003445514
Light:
  m_ObjectHideFlags: 0
  m_PrefabParentObject: {fileID: 0}
  m_PrefabInternal: {fileID: 0}
  m_GameObject: {fileID: 2003445513}
  m_Enabled: 1
  serializedVersion: 7
  m_Type: 1
  m_Color: {r: 1, g: 1, b: 1, a: 1}
  m_Intensity: 2
  m_Range: 10
  m_SpotAngle: 30
  m_CookieSize: 10
  m_Shadows:
    m_Type: 0
    m_Resolution: -1
    m_CustomResolution: -1
    m_Strength: 1
    m_Bias: 0.05
    m_NormalBias: 0.4
    m_NearPlane: 0.2
  m_Cookie: {fileID: 0}
  m_DrawHalo: 0
  m_Flare: {fileID: 0}
  m_RenderMode: 0
  m_CullingMask:
    serializedVersion: 2
    m_Bits: 4294967295
  m_Lightmapping: 1
  m_AreaSize: {x: 1, y: 1}
  m_BounceIntensity: 1
  m_ShadowRadius: 0
  m_ShadowAngle: 0
--- !u!4 &2003445515
Transform:
  m_ObjectHideFlags: 0
  m_PrefabParentObject: {fileID: 0}
  m_PrefabInternal: {fileID: 0}
  m_GameObject: {fileID: 2003445513}
  m_LocalRotation: {x: 0.41986334, y: -0.103315346, z: 0.04817675, w: 0.90039974}
  m_LocalPosition: {x: 0, y: 10, z: 0}
  m_LocalScale: {x: 1, y: 1, z: 1}
  m_LocalEulerAnglesHint: {x: 0, y: 0, z: 0}
  m_Children: []
  m_Father: {fileID: 0}
  m_RootOrder: 2
