%YAML 1.1
%TAG !u! tag:unity3d.com,2011:
--- !u!1011 &101100000
AvatarMask:
  m_ObjectHideFlags: 0
  m_PrefabParentObject: {fileID: 0}
  m_PrefabInternal: {fileID: 0}
  m_Name: headonly
  m_Mask: 01000000010000000000000001000000010000000100000001000000010000000100000001000000010000000100000001000000
  m_Elements:
  - m_Path: 
    m_Weight: 1
  - m_Path: CC_Base_Body
    m_Weight: 1
  - m_Path: CC_Base_Eye
    m_Weight: 1
  - m_Path: CC_Base_Root
    m_Weight: 1
  - m_Path: CC_Base_Root/CC_Base_Hip
    m_Weight: 1
  - m_Path: CC_Base_Root/CC_Base_Hip/CC_Base_Pelvis
    m_Weight: 1
  - m_Path: CC_Base_Root/CC_Base_Hip/CC_Base_Pelvis/CC_Base_L_Thigh
    m_Weight: 1
  - m_Path: CC_Base_Root/CC_Base_Hip/CC_Base_Pelvis/CC_Base_L_Thigh/CC_Base_L_Calf
    m_Weight: 1
  - m_Path: CC_Base_Root/CC_Base_Hip/CC_Base_Pelvis/CC_Base_L_Thigh/CC_Base_L_Calf/CC_Base_L_CalfTwist01
    m_Weight: 1
  - m_Path: CC_Base_Root/CC_Base_Hip/CC_Base_Pelvis/CC_Base_L_Thigh/CC_Base_L_Calf/CC_Base_L_CalfTwist01/CC_Base_L_CalfTwist02
    m_Weight: 1
  - m_Path: CC_Base_Root/CC_Base_Hip/CC_Base_Pelvis/CC_Base_L_Thigh/CC_Base_L_Calf/CC_Base_L_Foot
    m_Weight: 1
  - m_Path: CC_Base_Root/CC_Base_Hip/CC_Base_Pelvis/CC_Base_L_Thigh/CC_Base_L_Calf/CC_Base_L_Foot/CC_Base_L_Foot01_Floor1
    m_Weight: 1
  - m_Path: CC_Base_Root/CC_Base_Hip/CC_Base_Pelvis/CC_Base_L_Thigh/CC_Base_L_Calf/CC_Base_L_Foot/CC_Base_L_Foot01_Floor2
    m_Weight: 1
  - m_Path: CC_Base_Root/CC_Base_Hip/CC_Base_Pelvis/CC_Base_L_Thigh/CC_Base_L_Calf/CC_Base_L_Foot/CC_Base_L_Foot01_Floor3
    m_Weight: 1
  - m_Path: CC_Base_Root/CC_Base_Hip/CC_Base_Pelvis/CC_Base_L_Thigh/CC_Base_L_Calf/CC_Base_L_Foot/CC_Base_L_Foot01_Floor4
    m_Weight: 1
  - m_Path: CC_Base_Root/CC_Base_Hip/CC_Base_Pelvis/CC_Base_L_Thigh/CC_Base_L_Calf/CC_Base_L_Foot/CC_Base_L_Foot01_Floor5
    m_Weight: 1
  - m_Path: CC_Base_Root/CC_Base_Hip/CC_Base_Pelvis/CC_Base_L_Thigh/CC_Base_L_Calf/CC_Base_L_Foot/CC_Base_L_Foot01_Floor6
    m_Weight: 1
  - m_Path: CC_Base_Root/CC_Base_Hip/CC_Base_Pelvis/CC_Base_L_Thigh/CC_Base_L_Calf/CC_Base_L_Foot/CC_Base_L_ToeBase
    m_Weight: 1
  - m_Path: CC_Base_Root/CC_Base_Hip/CC_Base_Pelvis/CC_Base_L_Thigh/CC_Base_L_Calf/CC_Base_L_Foot/CC_Base_L_ToeBase/CC_Base_L_Toe00
    m_Weight: 1
  - m_Path: CC_Base_Root/CC_Base_Hip/CC_Base_Pelvis/CC_Base_L_Thigh/CC_Base_L_Calf/CC_Base_L_Foot/CC_Base_L_ToeBase/CC_Base_L_Toe00/CC_Base_L_Toe00Nub
    m_Weight: 1
  - m_Path: CC_Base_Root/CC_Base_Hip/CC_Base_Pelvis/CC_Base_L_Thigh/CC_Base_L_Calf/CC_Base_L_Foot/CC_Base_L_ToeBase/CC_Base_L_Toe10
    m_Weight: 1
  - m_Path: CC_Base_Root/CC_Base_Hip/CC_Base_Pelvis/CC_Base_L_Thigh/CC_Base_L_Calf/CC_Base_L_Foot/CC_Base_L_ToeBase/CC_Base_L_Toe10/CC_Base_L_Toe10Nub
    m_Weight: 1
  - m_Path: CC_Base_Root/CC_Base_Hip/CC_Base_Pelvis/CC_Base_L_Thigh/CC_Base_L_Calf/CC_Base_L_Foot/CC_Base_L_ToeBase/CC_Base_L_Toe20
    m_Weight: 1
  - m_Path: CC_Base_Root/CC_Base_Hip/CC_Base_Pelvis/CC_Base_L_Thigh/CC_Base_L_Calf/CC_Base_L_Foot/CC_Base_L_ToeBase/CC_Base_L_Toe20/CC_Base_L_Toe20Nub
    m_Weight: 1
  - m_Path: CC_Base_Root/CC_Base_Hip/CC_Base_Pelvis/CC_Base_L_Thigh/CC_Base_L_Calf/CC_Base_L_Foot/CC_Base_L_ToeBase/CC_Base_L_Toe30
    m_Weight: 1
  - m_Path: CC_Base_Root/CC_Base_Hip/CC_Base_Pelvis/CC_Base_L_Thigh/CC_Base_L_Calf/CC_Base_L_Foot/CC_Base_L_ToeBase/CC_Base_L_Toe30/CC_Base_L_Toe30Nub
    m_Weight: 1
  - m_Path: CC_Base_Root/CC_Base_Hip/CC_Base_Pelvis/CC_Base_L_Thigh/CC_Base_L_Calf/CC_Base_L_Foot/CC_Base_L_ToeBase/CC_Base_L_Toe40
    m_Weight: 1
  - m_Path: CC_Base_Root/CC_Base_Hip/CC_Base_Pelvis/CC_Base_L_Thigh/CC_Base_L_Calf/CC_Base_L_Foot/CC_Base_L_ToeBase/CC_Base_L_Toe40/CC_Base_L_Toe40Nub
    m_Weight: 1
  - m_Path: CC_Base_Root/CC_Base_Hip/CC_Base_Pelvis/CC_Base_L_Thigh/CC_Base_L_Calf/CC_Base_L_Foot/CC_Base_L_ToeBaseShareBone
    m_Weight: 1
  - m_Path: CC_Base_Root/CC_Base_Hip/CC_Base_Pelvis/CC_Base_L_Thigh/CC_Base_L_Calf/CC_Base_L_Knee
    m_Weight: 1
  - m_Path: CC_Base_Root/CC_Base_Hip/CC_Base_Pelvis/CC_Base_L_Thigh/CC_Base_L_Hip0
    m_Weight: 1
  - m_Path: CC_Base_Root/CC_Base_Hip/CC_Base_Pelvis/CC_Base_L_Thigh/CC_Base_L_Hip0/CC_Base_L_Hip0Nub
    m_Weight: 1
  - m_Path: CC_Base_Root/CC_Base_Hip/CC_Base_Pelvis/CC_Base_L_Thigh/CC_Base_L_ThighTwist01
    m_Weight: 1
  - m_Path: CC_Base_Root/CC_Base_Hip/CC_Base_Pelvis/CC_Base_L_Thigh/CC_Base_L_ThighTwist01/CC_Base_L_ThighTwist02
    m_Weight: 1
  - m_Path: CC_Base_Root/CC_Base_Hip/CC_Base_Pelvis/CC_Base_R_Thigh
    m_Weight: 1
  - m_Path: CC_Base_Root/CC_Base_Hip/CC_Base_Pelvis/CC_Base_R_Thigh/CC_Base_R_Calf
    m_Weight: 1
  - m_Path: CC_Base_Root/CC_Base_Hip/CC_Base_Pelvis/CC_Base_R_Thigh/CC_Base_R_Calf/CC_Base_R_CalfTwist01
    m_Weight: 1
  - m_Path: CC_Base_Root/CC_Base_Hip/CC_Base_Pelvis/CC_Base_R_Thigh/CC_Base_R_Calf/CC_Base_R_CalfTwist01/CC_Base_R_CalfTwist02
    m_Weight: 1
  - m_Path: CC_Base_Root/CC_Base_Hip/CC_Base_Pelvis/CC_Base_R_Thigh/CC_Base_R_Calf/CC_Base_R_Foot
    m_Weight: 1
  - m_Path: CC_Base_Root/CC_Base_Hip/CC_Base_Pelvis/CC_Base_R_Thigh/CC_Base_R_Calf/CC_Base_R_Foot/CC_Base_R_Foot01_Floor1
    m_Weight: 1
  - m_Path: CC_Base_Root/CC_Base_Hip/CC_Base_Pelvis/CC_Base_R_Thigh/CC_Base_R_Calf/CC_Base_R_Foot/CC_Base_R_Foot01_Floor2
    m_Weight: 1
  - m_Path: CC_Base_Root/CC_Base_Hip/CC_Base_Pelvis/CC_Base_R_Thigh/CC_Base_R_Calf/CC_Base_R_Foot/CC_Base_R_Foot01_Floor3
    m_Weight: 1
  - m_Path: CC_Base_Root/CC_Base_Hip/CC_Base_Pelvis/CC_Base_R_Thigh/CC_Base_R_Calf/CC_Base_R_Foot/CC_Base_R_Foot01_Floor4
    m_Weight: 1
  - m_Path: CC_Base_Root/CC_Base_Hip/CC_Base_Pelvis/CC_Base_R_Thigh/CC_Base_R_Calf/CC_Base_R_Foot/CC_Base_R_Foot01_Floor5
    m_Weight: 1
  - m_Path: CC_Base_Root/CC_Base_Hip/CC_Base_Pelvis/CC_Base_R_Thigh/CC_Base_R_Calf/CC_Base_R_Foot/CC_Base_R_Foot01_Floor6
    m_Weight: 1
  - m_Path: CC_Base_Root/CC_Base_Hip/CC_Base_Pelvis/CC_Base_R_Thigh/CC_Base_R_Calf/CC_Base_R_Foot/CC_Base_R_ToeBase
    m_Weight: 1
  - m_Path: CC_Base_Root/CC_Base_Hip/CC_Base_Pelvis/CC_Base_R_Thigh/CC_Base_R_Calf/CC_Base_R_Foot/CC_Base_R_ToeBase/CC_Base_R_Toe00
    m_Weight: 1
  - m_Path: CC_Base_Root/CC_Base_Hip/CC_Base_Pelvis/CC_Base_R_Thigh/CC_Base_R_Calf/CC_Base_R_Foot/CC_Base_R_ToeBase/CC_Base_R_Toe00/CC_Base_R_Toe00Nub
    m_Weight: 1
  - m_Path: CC_Base_Root/CC_Base_Hip/CC_Base_Pelvis/CC_Base_R_Thigh/CC_Base_R_Calf/CC_Base_R_Foot/CC_Base_R_ToeBase/CC_Base_R_Toe10
    m_Weight: 1
  - m_Path: CC_Base_Root/CC_Base_Hip/CC_Base_Pelvis/CC_Base_R_Thigh/CC_Base_R_Calf/CC_Base_R_Foot/CC_Base_R_ToeBase/CC_Base_R_Toe10/CC_Base_R_Toe10Nub
    m_Weight: 1
  - m_Path: CC_Base_Root/CC_Base_Hip/CC_Base_Pelvis/CC_Base_R_Thigh/CC_Base_R_Calf/CC_Base_R_Foot/CC_Base_R_ToeBase/CC_Base_R_Toe20
    m_Weight: 1
  - m_Path: CC_Base_Root/CC_Base_Hip/CC_Base_Pelvis/CC_Base_R_Thigh/CC_Base_R_Calf/CC_Base_R_Foot/CC_Base_R_ToeBase/CC_Base_R_Toe20/CC_Base_R_Toe20Nub
    m_Weight: 1
  - m_Path: CC_Base_Root/CC_Base_Hip/CC_Base_Pelvis/CC_Base_R_Thigh/CC_Base_R_Calf/CC_Base_R_Foot/CC_Base_R_ToeBase/CC_Base_R_Toe30
    m_Weight: 1
  - m_Path: CC_Base_Root/CC_Base_Hip/CC_Base_Pelvis/CC_Base_R_Thigh/CC_Base_R_Calf/CC_Base_R_Foot/CC_Base_R_ToeBase/CC_Base_R_Toe30/CC_Base_R_Toe30Nub
    m_Weight: 1
  - m_Path: CC_Base_Root/CC_Base_Hip/CC_Base_Pelvis/CC_Base_R_Thigh/CC_Base_R_Calf/CC_Base_R_Foot/CC_Base_R_ToeBase/CC_Base_R_Toe40
    m_Weight: 1
  - m_Path: CC_Base_Root/CC_Base_Hip/CC_Base_Pelvis/CC_Base_R_Thigh/CC_Base_R_Calf/CC_Base_R_Foot/CC_Base_R_ToeBase/CC_Base_R_Toe40/CC_Base_R_Toe40Nub
    m_Weight: 1
  - m_Path: CC_Base_Root/CC_Base_Hip/CC_Base_Pelvis/CC_Base_R_Thigh/CC_Base_R_Calf/CC_Base_R_Foot/CC_Base_R_ToeBaseShareBone
    m_Weight: 1
  - m_Path: CC_Base_Root/CC_Base_Hip/CC_Base_Pelvis/CC_Base_R_Thigh/CC_Base_R_Calf/CC_Base_R_Knee
    m_Weight: 1
  - m_Path: CC_Base_Root/CC_Base_Hip/CC_Base_Pelvis/CC_Base_R_Thigh/CC_Base_R_Hip0
    m_Weight: 1
  - m_Path: CC_Base_Root/CC_Base_Hip/CC_Base_Pelvis/CC_Base_R_Thigh/CC_Base_R_Hip0/CC_Base_R_Hip0Nub
    m_Weight: 1
  - m_Path: CC_Base_Root/CC_Base_Hip/CC_Base_Pelvis/CC_Base_R_Thigh/CC_Base_R_ThighTwist01
    m_Weight: 1
  - m_Path: CC_Base_Root/CC_Base_Hip/CC_Base_Pelvis/CC_Base_R_Thigh/CC_Base_R_ThighTwist01/CC_Base_R_ThighTwist02
    m_Weight: 1
  - m_Path: CC_Base_Root/CC_Base_Hip/CC_Base_Waist
    m_Weight: 1
  - m_Path: CC_Base_Root/CC_Base_Hip/CC_Base_Waist/CC_Base_L_Abdominal
    m_Weight: 1
  - m_Path: CC_Base_Root/CC_Base_Hip/CC_Base_Waist/CC_Base_L_Abdominal/CC_Base_L_AbdominalNub
    m_Weight: 1
  - m_Path: CC_Base_Root/CC_Base_Hip/CC_Base_Waist/CC_Base_R_Abdominal
    m_Weight: 1
  - m_Path: CC_Base_Root/CC_Base_Hip/CC_Base_Waist/CC_Base_R_Abdominal/CC_Base_R_AbdominalNub
    m_Weight: 1
  - m_Path: CC_Base_Root/CC_Base_Hip/CC_Base_Waist/CC_Base_Spine01
    m_Weight: 1
  - m_Path: CC_Base_Root/CC_Base_Hip/CC_Base_Waist/CC_Base_Spine01/CC_Base_Spine02
    m_Weight: 1
  - m_Path: CC_Base_Root/CC_Base_Hip/CC_Base_Waist/CC_Base_Spine01/CC_Base_Spine02/CC_Base_L_Clavicle
    m_Weight: 1
  - m_Path: CC_Base_Root/CC_Base_Hip/CC_Base_Waist/CC_Base_Spine01/CC_Base_Spine02/CC_Base_L_Clavicle/CC_Base_L_Upperarm
    m_Weight: 1
  - m_Path: CC_Base_Root/CC_Base_Hip/CC_Base_Waist/CC_Base_Spine01/CC_Base_Spine02/CC_Base_L_Clavicle/CC_Base_L_Upperarm/CC_Base_L_Forearm
    m_Weight: 1
  - m_Path: CC_Base_Root/CC_Base_Hip/CC_Base_Waist/CC_Base_Spine01/CC_Base_Spine02/CC_Base_L_Clavicle/CC_Base_L_Upperarm/CC_Base_L_Forearm/CC_Base_L_Elbow
    m_Weight: 1
  - m_Path: CC_Base_Root/CC_Base_Hip/CC_Base_Waist/CC_Base_Spine01/CC_Base_Spine02/CC_Base_L_Clavicle/CC_Base_L_Upperarm/CC_Base_L_Forearm/CC_Base_L_ForearmTwist01
    m_Weight: 1
  - m_Path: CC_Base_Root/CC_Base_Hip/CC_Base_Waist/CC_Base_Spine01/CC_Base_Spine02/CC_Base_L_Clavicle/CC_Base_L_Upperarm/CC_Base_L_Forearm/CC_Base_L_ForearmTwist01/CC_Base_L_ForearmTwist02
    m_Weight: 1
  - m_Path: CC_Base_Root/CC_Base_Hip/CC_Base_Waist/CC_Base_Spine01/CC_Base_Spine02/CC_Base_L_Clavicle/CC_Base_L_Upperarm/CC_Base_L_Forearm/CC_Base_L_Hand
    m_Weight: 1
  - m_Path: CC_Base_Root/CC_Base_Hip/CC_Base_Waist/CC_Base_Spine01/CC_Base_Spine02/CC_Base_L_Clavicle/CC_Base_L_Upperarm/CC_Base_L_Forearm/CC_Base_L_Hand/CC_Base_L_Finger00
    m_Weight: 1
  - m_Path: CC_Base_Root/CC_Base_Hip/CC_Base_Waist/CC_Base_Spine01/CC_Base_Spine02/CC_Base_L_Clavicle/CC_Base_L_Upperarm/CC_Base_L_Forearm/CC_Base_L_Hand/CC_Base_L_Finger00/CC_Base_L_Finger01
    m_Weight: 1
  - m_Path: CC_Base_Root/CC_Base_Hip/CC_Base_Waist/CC_Base_Spine01/CC_Base_Spine02/CC_Base_L_Clavicle/CC_Base_L_Upperarm/CC_Base_L_Forearm/CC_Base_L_Hand/CC_Base_L_Finger00/CC_Base_L_Finger01/CC_Base_L_Finger02
    m_Weight: 1
  - m_Path: CC_Base_Root/CC_Base_Hip/CC_Base_Waist/CC_Base_Spine01/CC_Base_Spine02/CC_Base_L_Clavicle/CC_Base_L_Upperarm/CC_Base_L_Forearm/CC_Base_L_Hand/CC_Base_L_Finger00/CC_Base_L_Finger01/CC_Base_L_Finger02/CC_Base_L_Finger0Nub
    m_Weight: 1
  - m_Path: CC_Base_Root/CC_Base_Hip/CC_Base_Waist/CC_Base_Spine01/CC_Base_Spine02/CC_Base_L_Clavicle/CC_Base_L_Upperarm/CC_Base_L_Forearm/CC_Base_L_Hand/CC_Base_L_Finger10
    m_Weight: 1
  - m_Path: CC_Base_Root/CC_Base_Hip/CC_Base_Waist/CC_Base_Spine01/CC_Base_Spine02/CC_Base_L_Clavicle/CC_Base_L_Upperarm/CC_Base_L_Forearm/CC_Base_L_Hand/CC_Base_L_Finger10/CC_Base_L_Finger11
    m_Weight: 1
  - m_Path: CC_Base_Root/CC_Base_Hip/CC_Base_Waist/CC_Base_Spine01/CC_Base_Spine02/CC_Base_L_Clavicle/CC_Base_L_Upperarm/CC_Base_L_Forearm/CC_Base_L_Hand/CC_Base_L_Finger10/CC_Base_L_Finger11/CC_Base_L_Finger12
    m_Weight: 1
  - m_Path: CC_Base_Root/CC_Base_Hip/CC_Base_Waist/CC_Base_Spine01/CC_Base_Spine02/CC_Base_L_Clavicle/CC_Base_L_Upperarm/CC_Base_L_Forearm/CC_Base_L_Hand/CC_Base_L_Finger10/CC_Base_L_Finger11/CC_Base_L_Finger12/CC_Base_L_Finger1Nub
    m_Weight: 1
  - m_Path: CC_Base_Root/CC_Base_Hip/CC_Base_Waist/CC_Base_Spine01/CC_Base_Spine02/CC_Base_L_Clavicle/CC_Base_L_Upperarm/CC_Base_L_Forearm/CC_Base_L_Hand/CC_Base_L_Finger20
    m_Weight: 1
  - m_Path: CC_Base_Root/CC_Base_Hip/CC_Base_Waist/CC_Base_Spine01/CC_Base_Spine02/CC_Base_L_Clavicle/CC_Base_L_Upperarm/CC_Base_L_Forearm/CC_Base_L_Hand/CC_Base_L_Finger20/CC_Base_L_Finger21
    m_Weight: 1
  - m_Path: CC_Base_Root/CC_Base_Hip/CC_Base_Waist/CC_Base_Spine01/CC_Base_Spine02/CC_Base_L_Clavicle/CC_Base_L_Upperarm/CC_Base_L_Forearm/CC_Base_L_Hand/CC_Base_L_Finger20/CC_Base_L_Finger21/CC_Base_L_Finger22
    m_Weight: 1
  - m_Path: CC_Base_Root/CC_Base_Hip/CC_Base_Waist/CC_Base_Spine01/CC_Base_Spine02/CC_Base_L_Clavicle/CC_Base_L_Upperarm/CC_Base_L_Forearm/CC_Base_L_Hand/CC_Base_L_Finger20/CC_Base_L_Finger21/CC_Base_L_Finger22/CC_Base_L_Finger2Nub
    m_Weight: 1
  - m_Path: CC_Base_Root/CC_Base_Hip/CC_Base_Waist/CC_Base_Spine01/CC_Base_Spine02/CC_Base_L_Clavicle/CC_Base_L_Upperarm/CC_Base_L_Forearm/CC_Base_L_Hand/CC_Base_L_Finger30
    m_Weight: 1
  - m_Path: CC_Base_Root/CC_Base_Hip/CC_Base_Waist/CC_Base_Spine01/CC_Base_Spine02/CC_Base_L_Clavicle/CC_Base_L_Upperarm/CC_Base_L_Forearm/CC_Base_L_Hand/CC_Base_L_Finger30/CC_Base_L_Finger31
    m_Weight: 1
  - m_Path: CC_Base_Root/CC_Base_Hip/CC_Base_Waist/CC_Base_Spine01/CC_Base_Spine02/CC_Base_L_Clavicle/CC_Base_L_Upperarm/CC_Base_L_Forearm/CC_Base_L_Hand/CC_Base_L_Finger30/CC_Base_L_Finger31/CC_Base_L_Finger32
    m_Weight: 1
  - m_Path: CC_Base_Root/CC_Base_Hip/CC_Base_Waist/CC_Base_Spine01/CC_Base_Spine02/CC_Base_L_Clavicle/CC_Base_L_Upperarm/CC_Base_L_Forearm/CC_Base_L_Hand/CC_Base_L_Finger30/CC_Base_L_Finger31/CC_Base_L_Finger32/CC_Base_L_Finger3Nub
    m_Weight: 1
  - m_Path: CC_Base_Root/CC_Base_Hip/CC_Base_Waist/CC_Base_Spine01/CC_Base_Spine02/CC_Base_L_Clavicle/CC_Base_L_Upperarm/CC_Base_L_Forearm/CC_Base_L_Hand/CC_Base_L_Finger40
    m_Weight: 1
  - m_Path: CC_Base_Root/CC_Base_Hip/CC_Base_Waist/CC_Base_Spine01/CC_Base_Spine02/CC_Base_L_Clavicle/CC_Base_L_Upperarm/CC_Base_L_Forearm/CC_Base_L_Hand/CC_Base_L_Finger40/CC_Base_L_Finger41
    m_Weight: 1
  - m_Path: CC_Base_Root/CC_Base_Hip/CC_Base_Waist/CC_Base_Spine01/CC_Base_Spine02/CC_Base_L_Clavicle/CC_Base_L_Upperarm/CC_Base_L_Forearm/CC_Base_L_Hand/CC_Base_L_Finger40/CC_Base_L_Finger41/CC_Base_L_Finger42
    m_Weight: 1
  - m_Path: CC_Base_Root/CC_Base_Hip/CC_Base_Waist/CC_Base_Spine01/CC_Base_Spine02/CC_Base_L_Clavicle/CC_Base_L_Upperarm/CC_Base_L_Forearm/CC_Base_L_Hand/CC_Base_L_Finger40/CC_Base_L_Finger41/CC_Base_L_Finger42/CC_Base_L_Finger4Nub
    m_Weight: 1
  - m_Path: CC_Base_Root/CC_Base_Hip/CC_Base_Waist/CC_Base_Spine01/CC_Base_Spine02/CC_Base_L_Clavicle/CC_Base_L_Upperarm/CC_Base_L_Forearm/CC_Base_L_Hand/CC_Base_L_Hand01_Floor1
    m_Weight: 1
  - m_Path: CC_Base_Root/CC_Base_Hip/CC_Base_Waist/CC_Base_Spine01/CC_Base_Spine02/CC_Base_L_Clavicle/CC_Base_L_Upperarm/CC_Base_L_Forearm/CC_Base_L_Hand/CC_Base_L_Hand01_Floor2
    m_Weight: 1
  - m_Path: CC_Base_Root/CC_Base_Hip/CC_Base_Waist/CC_Base_Spine01/CC_Base_Spine02/CC_Base_L_Clavicle/CC_Base_L_Upperarm/CC_Base_L_Forearm/CC_Base_L_Hand/CC_Base_L_Hand01_Floor3
    m_Weight: 1
  - m_Path: CC_Base_Root/CC_Base_Hip/CC_Base_Waist/CC_Base_Spine01/CC_Base_Spine02/CC_Base_L_Clavicle/CC_Base_L_Upperarm/CC_Base_L_Forearm/CC_Base_L_Hand/CC_Base_L_Hand01_Floor4
    m_Weight: 1
  - m_Path: CC_Base_Root/CC_Base_Hip/CC_Base_Waist/CC_Base_Spine01/CC_Base_Spine02/CC_Base_L_Clavicle/CC_Base_L_Upperarm/CC_Base_L_Forearm/CC_Base_L_Hand/CC_Base_L_Hand01_Floor5
    m_Weight: 1
  - m_Path: CC_Base_Root/CC_Base_Hip/CC_Base_Waist/CC_Base_Spine01/CC_Base_Spine02/CC_Base_L_Clavicle/CC_Base_L_Upperarm/CC_Base_L_Forearm/CC_Base_L_Hand/CC_Base_L_Hand01_Floor6
    m_Weight: 1
  - m_Path: CC_Base_Root/CC_Base_Hip/CC_Base_Waist/CC_Base_Spine01/CC_Base_Spine02/CC_Base_L_Clavicle/CC_Base_L_Upperarm/CC_Base_L_UpperarmTwist01
    m_Weight: 1
  - m_Path: CC_Base_Root/CC_Base_Hip/CC_Base_Waist/CC_Base_Spine01/CC_Base_Spine02/CC_Base_L_Clavicle/CC_Base_L_Upperarm/CC_Base_L_UpperarmTwist01/CC_Base_L_UpperarmTwist02
    m_Weight: 1
  - m_Path: CC_Base_Root/CC_Base_Hip/CC_Base_Waist/CC_Base_Spine01/CC_Base_Spine02/CC_Base_L_Ribs
    m_Weight: 1
  - m_Path: CC_Base_Root/CC_Base_Hip/CC_Base_Waist/CC_Base_Spine01/CC_Base_Spine02/CC_Base_L_Ribs/CC_Base_L_RibsNub
    m_Weight: 1
  - m_Path: CC_Base_Root/CC_Base_Hip/CC_Base_Waist/CC_Base_Spine01/CC_Base_Spine02/CC_Base_L_Ribs/CC_Base_L_RibsTwist
    m_Weight: 1
  - m_Path: CC_Base_Root/CC_Base_Hip/CC_Base_Waist/CC_Base_Spine01/CC_Base_Spine02/CC_Base_L_Ribs/CC_Base_L_RibsTwist/CC_Base_L_Breast
    m_Weight: 1
  - m_Path: CC_Base_Root/CC_Base_Hip/CC_Base_Waist/CC_Base_Spine01/CC_Base_Spine02/CC_Base_L_Ribs/CC_Base_L_RibsTwist/CC_Base_L_Breast/CC_Base_L_BreastNub
    m_Weight: 1
  - m_Path: CC_Base_Root/CC_Base_Hip/CC_Base_Waist/CC_Base_Spine01/CC_Base_Spine02/CC_Base_NeckTwist01
    m_Weight: 1
  - m_Path: CC_Base_Root/CC_Base_Hip/CC_Base_Waist/CC_Base_Spine01/CC_Base_Spine02/CC_Base_NeckTwist01/CC_Base_NeckTwist02
    m_Weight: 1
  - m_Path: CC_Base_Root/CC_Base_Hip/CC_Base_Waist/CC_Base_Spine01/CC_Base_Spine02/CC_Base_NeckTwist01/CC_Base_NeckTwist02/CC_Base_Head
    m_Weight: 1
  - m_Path: CC_Base_Root/CC_Base_Hip/CC_Base_Waist/CC_Base_Spine01/CC_Base_Spine02/CC_Base_NeckTwist01/CC_Base_NeckTwist02/CC_Base_Head/CC_Base_FacialBone
    m_Weight: 1
  - m_Path: CC_Base_Root/CC_Base_Hip/CC_Base_Waist/CC_Base_Spine01/CC_Base_Spine02/CC_Base_NeckTwist01/CC_Base_NeckTwist02/CC_Base_Head/CC_Base_FacialBone/CC_Base_JawRoot
    m_Weight: 0
  - m_Path: CC_Base_Root/CC_Base_Hip/CC_Base_Waist/CC_Base_Spine01/CC_Base_Spine02/CC_Base_NeckTwist01/CC_Base_NeckTwist02/CC_Base_Head/CC_Base_FacialBone/CC_Base_JawRoot/CC_Base_Teeth02
    m_Weight: 0
  - m_Path: CC_Base_Root/CC_Base_Hip/CC_Base_Waist/CC_Base_Spine01/CC_Base_Spine02/CC_Base_NeckTwist01/CC_Base_NeckTwist02/CC_Base_Head/CC_Base_FacialBone/CC_Base_JawRoot/CC_Base_Tongue01
    m_Weight: 0
  - m_Path: CC_Base_Root/CC_Base_Hip/CC_Base_Waist/CC_Base_Spine01/CC_Base_Spine02/CC_Base_NeckTwist01/CC_Base_NeckTwist02/CC_Base_Head/CC_Base_FacialBone/CC_Base_JawRoot/CC_Base_Tongue01/CC_Base_Tongue02
    m_Weight: 0
  - m_Path: CC_Base_Root/CC_Base_Hip/CC_Base_Waist/CC_Base_Spine01/CC_Base_Spine02/CC_Base_NeckTwist01/CC_Base_NeckTwist02/CC_Base_Head/CC_Base_FacialBone/CC_Base_JawRoot/CC_Base_Tongue01/CC_Base_Tongue02/CC_Base_Tongue03
    m_Weight: 0
  - m_Path: CC_Base_Root/CC_Base_Hip/CC_Base_Waist/CC_Base_Spine01/CC_Base_Spine02/CC_Base_NeckTwist01/CC_Base_NeckTwist02/CC_Base_Head/CC_Base_FacialBone/CC_Base_JawRoot/CC_Base_Tongue01/CC_Base_Tongue02/CC_Base_Tongue03/CC_Base_Tongue03Nub
    m_Weight: 0
  - m_Path: CC_Base_Root/CC_Base_Hip/CC_Base_Waist/CC_Base_Spine01/CC_Base_Spine02/CC_Base_NeckTwist01/CC_Base_NeckTwist02/CC_Base_Head/CC_Base_FacialBone/CC_Base_L_EyeRoot
    m_Weight: 1
  - m_Path: CC_Base_Root/CC_Base_Hip/CC_Base_Waist/CC_Base_Spine01/CC_Base_Spine02/CC_Base_NeckTwist01/CC_Base_NeckTwist02/CC_Base_Head/CC_Base_FacialBone/CC_Base_L_EyeRoot/CC_Base_L_Eye
    m_Weight: 1
  - m_Path: CC_Base_Root/CC_Base_Hip/CC_Base_Waist/CC_Base_Spine01/CC_Base_Spine02/CC_Base_NeckTwist01/CC_Base_NeckTwist02/CC_Base_Head/CC_Base_FacialBone/CC_Base_R_EyeRoot
    m_Weight: 1
  - m_Path: CC_Base_Root/CC_Base_Hip/CC_Base_Waist/CC_Base_Spine01/CC_Base_Spine02/CC_Base_NeckTwist01/CC_Base_NeckTwist02/CC_Base_Head/CC_Base_FacialBone/CC_Base_R_EyeRoot/CC_Base_R_Eye
    m_Weight: 1
  - m_Path: CC_Base_Root/CC_Base_Hip/CC_Base_Waist/CC_Base_Spine01/CC_Base_Spine02/CC_Base_NeckTwist01/CC_Base_NeckTwist02/CC_Base_Head/CC_Base_FacialBone/CC_Base_UpperJaw
    m_Weight: 1
  - m_Path: CC_Base_Root/CC_Base_Hip/CC_Base_Waist/CC_Base_Spine01/CC_Base_Spine02/CC_Base_NeckTwist01/CC_Base_NeckTwist02/CC_Base_Head/CC_Base_FacialBone/CC_Base_UpperJaw/CC_Base_Teeth01
    m_Weight: 1
  - m_Path: CC_Base_Root/CC_Base_Hip/CC_Base_Waist/CC_Base_Spine01/CC_Base_Spine02/CC_Base_NeckTwist01/CC_Base_NeckTwist02/CC_Base_Head/CC_Base_HeadNub
    m_Weight: 1
  - m_Path: CC_Base_Root/CC_Base_Hip/CC_Base_Waist/CC_Base_Spine01/CC_Base_Spine02/CC_Base_NeckTwist01/CC_Base_NeckTwist02/CC_Base_Head/RL_G6_Hair
    m_Weight: 1
  - m_Path: CC_Base_Root/CC_Base_Hip/CC_Base_Waist/CC_Base_Spine01/CC_Base_Spine02/CC_Base_NeckTwist01/CC_Base_NeckTwist02/CC_Base_Head/RL_G6_Hair/Part_HairMesh
    m_Weight: 1
  - m_Path: CC_Base_Root/CC_Base_Hip/CC_Base_Waist/CC_Base_Spine01/CC_Base_Spine02/CC_Base_R_Clavicle
    m_Weight: 1
  - m_Path: CC_Base_Root/CC_Base_Hip/CC_Base_Waist/CC_Base_Spine01/CC_Base_Spine02/CC_Base_R_Clavicle/CC_Base_R_Upperarm
    m_Weight: 1
  - m_Path: CC_Base_Root/CC_Base_Hip/CC_Base_Waist/CC_Base_Spine01/CC_Base_Spine02/CC_Base_R_Clavicle/CC_Base_R_Upperarm/CC_Base_R_Forearm
    m_Weight: 1
  - m_Path: CC_Base_Root/CC_Base_Hip/CC_Base_Waist/CC_Base_Spine01/CC_Base_Spine02/CC_Base_R_Clavicle/CC_Base_R_Upperarm/CC_Base_R_Forearm/CC_Base_R_Elbow
    m_Weight: 1
  - m_Path: CC_Base_Root/CC_Base_Hip/CC_Base_Waist/CC_Base_Spine01/CC_Base_Spine02/CC_Base_R_Clavicle/CC_Base_R_Upperarm/CC_Base_R_Forearm/CC_Base_R_ForearmTwist01
    m_Weight: 1
  - m_Path: CC_Base_Root/CC_Base_Hip/CC_Base_Waist/CC_Base_Spine01/CC_Base_Spine02/CC_Base_R_Clavicle/CC_Base_R_Upperarm/CC_Base_R_Forearm/CC_Base_R_ForearmTwist01/CC_Base_R_ForearmTwist02
    m_Weight: 1
  - m_Path: CC_Base_Root/CC_Base_Hip/CC_Base_Waist/CC_Base_Spine01/CC_Base_Spine02/CC_Base_R_Clavicle/CC_Base_R_Upperarm/CC_Base_R_Forearm/CC_Base_R_Hand
    m_Weight: 1
  - m_Path: CC_Base_Root/CC_Base_Hip/CC_Base_Waist/CC_Base_Spine01/CC_Base_Spine02/CC_Base_R_Clavicle/CC_Base_R_Upperarm/CC_Base_R_Forearm/CC_Base_R_Hand/CC_Base_R_Finger00
    m_Weight: 1
  - m_Path: CC_Base_Root/CC_Base_Hip/CC_Base_Waist/CC_Base_Spine01/CC_Base_Spine02/CC_Base_R_Clavicle/CC_Base_R_Upperarm/CC_Base_R_Forearm/CC_Base_R_Hand/CC_Base_R_Finger00/CC_Base_R_Finger01
    m_Weight: 1
  - m_Path: CC_Base_Root/CC_Base_Hip/CC_Base_Waist/CC_Base_Spine01/CC_Base_Spine02/CC_Base_R_Clavicle/CC_Base_R_Upperarm/CC_Base_R_Forearm/CC_Base_R_Hand/CC_Base_R_Finger00/CC_Base_R_Finger01/CC_Base_R_Finger02
    m_Weight: 1
  - m_Path: CC_Base_Root/CC_Base_Hip/CC_Base_Waist/CC_Base_Spine01/CC_Base_Spine02/CC_Base_R_Clavicle/CC_Base_R_Upperarm/CC_Base_R_Forearm/CC_Base_R_Hand/CC_Base_R_Finger00/CC_Base_R_Finger01/CC_Base_R_Finger02/CC_Base_R_Finger0Nub
    m_Weight: 1
  - m_Path: CC_Base_Root/CC_Base_Hip/CC_Base_Waist/CC_Base_Spine01/CC_Base_Spine02/CC_Base_R_Clavicle/CC_Base_R_Upperarm/CC_Base_R_Forearm/CC_Base_R_Hand/CC_Base_R_Finger10
    m_Weight: 1
  - m_Path: CC_Base_Root/CC_Base_Hip/CC_Base_Waist/CC_Base_Spine01/CC_Base_Spine02/CC_Base_R_Clavicle/CC_Base_R_Upperarm/CC_Base_R_Forearm/CC_Base_R_Hand/CC_Base_R_Finger10/CC_Base_R_Finger11
    m_Weight: 1
  - m_Path: CC_Base_Root/CC_Base_Hip/CC_Base_Waist/CC_Base_Spine01/CC_Base_Spine02/CC_Base_R_Clavicle/CC_Base_R_Upperarm/CC_Base_R_Forearm/CC_Base_R_Hand/CC_Base_R_Finger10/CC_Base_R_Finger11/CC_Base_R_Finger12
    m_Weight: 1
  - m_Path: CC_Base_Root/CC_Base_Hip/CC_Base_Waist/CC_Base_Spine01/CC_Base_Spine02/CC_Base_R_Clavicle/CC_Base_R_Upperarm/CC_Base_R_Forearm/CC_Base_R_Hand/CC_Base_R_Finger10/CC_Base_R_Finger11/CC_Base_R_Finger12/CC_Base_R_Finger1Nub
    m_Weight: 1
  - m_Path: CC_Base_Root/CC_Base_Hip/CC_Base_Waist/CC_Base_Spine01/CC_Base_Spine02/CC_Base_R_Clavicle/CC_Base_R_Upperarm/CC_Base_R_Forearm/CC_Base_R_Hand/CC_Base_R_Finger20
    m_Weight: 1
  - m_Path: CC_Base_Root/CC_Base_Hip/CC_Base_Waist/CC_Base_Spine01/CC_Base_Spine02/CC_Base_R_Clavicle/CC_Base_R_Upperarm/CC_Base_R_Forearm/CC_Base_R_Hand/CC_Base_R_Finger20/CC_Base_R_Finger21
    m_Weight: 1
  - m_Path: CC_Base_Root/CC_Base_Hip/CC_Base_Waist/CC_Base_Spine01/CC_Base_Spine02/CC_Base_R_Clavicle/CC_Base_R_Upperarm/CC_Base_R_Forearm/CC_Base_R_Hand/CC_Base_R_Finger20/CC_Base_R_Finger21/CC_Base_R_Finger22
    m_Weight: 1
  - m_Path: CC_Base_Root/CC_Base_Hip/CC_Base_Waist/CC_Base_Spine01/CC_Base_Spine02/CC_Base_R_Clavicle/CC_Base_R_Upperarm/CC_Base_R_Forearm/CC_Base_R_Hand/CC_Base_R_Finger20/CC_Base_R_Finger21/CC_Base_R_Finger22/CC_Base_R_Finger2Nub
    m_Weight: 1
  - m_Path: CC_Base_Root/CC_Base_Hip/CC_Base_Waist/CC_Base_Spine01/CC_Base_Spine02/CC_Base_R_Clavicle/CC_Base_R_Upperarm/CC_Base_R_Forearm/CC_Base_R_Hand/CC_Base_R_Finger30
    m_Weight: 1
  - m_Path: CC_Base_Root/CC_Base_Hip/CC_Base_Waist/CC_Base_Spine01/CC_Base_Spine02/CC_Base_R_Clavicle/CC_Base_R_Upperarm/CC_Base_R_Forearm/CC_Base_R_Hand/CC_Base_R_Finger30/CC_Base_R_Finger31
    m_Weight: 1
  - m_Path: CC_Base_Root/CC_Base_Hip/CC_Base_Waist/CC_Base_Spine01/CC_Base_Spine02/CC_Base_R_Clavicle/CC_Base_R_Upperarm/CC_Base_R_Forearm/CC_Base_R_Hand/CC_Base_R_Finger30/CC_Base_R_Finger31/CC_Base_R_Finger32
    m_Weight: 1
  - m_Path: CC_Base_Root/CC_Base_Hip/CC_Base_Waist/CC_Base_Spine01/CC_Base_Spine02/CC_Base_R_Clavicle/CC_Base_R_Upperarm/CC_Base_R_Forearm/CC_Base_R_Hand/CC_Base_R_Finger30/CC_Base_R_Finger31/CC_Base_R_Finger32/CC_Base_R_Finger3Nub
    m_Weight: 1
  - m_Path: CC_Base_Root/CC_Base_Hip/CC_Base_Waist/CC_Base_Spine01/CC_Base_Spine02/CC_Base_R_Clavicle/CC_Base_R_Upperarm/CC_Base_R_Forearm/CC_Base_R_Hand/CC_Base_R_Finger40
    m_Weight: 1
  - m_Path: CC_Base_Root/CC_Base_Hip/CC_Base_Waist/CC_Base_Spine01/CC_Base_Spine02/CC_Base_R_Clavicle/CC_Base_R_Upperarm/CC_Base_R_Forearm/CC_Base_R_Hand/CC_Base_R_Finger40/CC_Base_R_Finger41
    m_Weight: 1
  - m_Path: CC_Base_Root/CC_Base_Hip/CC_Base_Waist/CC_Base_Spine01/CC_Base_Spine02/CC_Base_R_Clavicle/CC_Base_R_Upperarm/CC_Base_R_Forearm/CC_Base_R_Hand/CC_Base_R_Finger40/CC_Base_R_Finger41/CC_Base_R_Finger42
    m_Weight: 1
  - m_Path: CC_Base_Root/CC_Base_Hip/CC_Base_Waist/CC_Base_Spine01/CC_Base_Spine02/CC_Base_R_Clavicle/CC_Base_R_Upperarm/CC_Base_R_Forearm/CC_Base_R_Hand/CC_Base_R_Finger40/CC_Base_R_Finger41/CC_Base_R_Finger42/CC_Base_R_Finger4Nub
    m_Weight: 1
  - m_Path: CC_Base_Root/CC_Base_Hip/CC_Base_Waist/CC_Base_Spine01/CC_Base_Spine02/CC_Base_R_Clavicle/CC_Base_R_Upperarm/CC_Base_R_Forearm/CC_Base_R_Hand/CC_Base_R_Hand01_Floor1
    m_Weight: 1
  - m_Path: CC_Base_Root/CC_Base_Hip/CC_Base_Waist/CC_Base_Spine01/CC_Base_Spine02/CC_Base_R_Clavicle/CC_Base_R_Upperarm/CC_Base_R_Forearm/CC_Base_R_Hand/CC_Base_R_Hand01_Floor2
    m_Weight: 1
  - m_Path: CC_Base_Root/CC_Base_Hip/CC_Base_Waist/CC_Base_Spine01/CC_Base_Spine02/CC_Base_R_Clavicle/CC_Base_R_Upperarm/CC_Base_R_Forearm/CC_Base_R_Hand/CC_Base_R_Hand01_Floor3
    m_Weight: 1
  - m_Path: CC_Base_Root/CC_Base_Hip/CC_Base_Waist/CC_Base_Spine01/CC_Base_Spine02/CC_Base_R_Clavicle/CC_Base_R_Upperarm/CC_Base_R_Forearm/CC_Base_R_Hand/CC_Base_R_Hand01_Floor4
    m_Weight: 1
  - m_Path: CC_Base_Root/CC_Base_Hip/CC_Base_Waist/CC_Base_Spine01/CC_Base_Spine02/CC_Base_R_Clavicle/CC_Base_R_Upperarm/CC_Base_R_Forearm/CC_Base_R_Hand/CC_Base_R_Hand01_Floor5
    m_Weight: 1
  - m_Path: CC_Base_Root/CC_Base_Hip/CC_Base_Waist/CC_Base_Spine01/CC_Base_Spine02/CC_Base_R_Clavicle/CC_Base_R_Upperarm/CC_Base_R_Forearm/CC_Base_R_Hand/CC_Base_R_Hand01_Floor6
    m_Weight: 1
  - m_Path: CC_Base_Root/CC_Base_Hip/CC_Base_Waist/CC_Base_Spine01/CC_Base_Spine02/CC_Base_R_Clavicle/CC_Base_R_Upperarm/CC_Base_R_UpperarmTwist01
    m_Weight: 1
  - m_Path: CC_Base_Root/CC_Base_Hip/CC_Base_Waist/CC_Base_Spine01/CC_Base_Spine02/CC_Base_R_Clavicle/CC_Base_R_Upperarm/CC_Base_R_UpperarmTwist01/CC_Base_R_UpperarmTwist02
    m_Weight: 1
  - m_Path: CC_Base_Root/CC_Base_Hip/CC_Base_Waist/CC_Base_Spine01/CC_Base_Spine02/CC_Base_R_Ribs
    m_Weight: 1
  - m_Path: CC_Base_Root/CC_Base_Hip/CC_Base_Waist/CC_Base_Spine01/CC_Base_Spine02/CC_Base_R_Ribs/CC_Base_R_RibsNub
    m_Weight: 1
  - m_Path: CC_Base_Root/CC_Base_Hip/CC_Base_Waist/CC_Base_Spine01/CC_Base_Spine02/CC_Base_R_Ribs/CC_Base_R_RibsTwist
    m_Weight: 1
  - m_Path: CC_Base_Root/CC_Base_Hip/CC_Base_Waist/CC_Base_Spine01/CC_Base_Spine02/CC_Base_R_Ribs/CC_Base_R_RibsTwist/CC_Base_R_Breast
    m_Weight: 1
  - m_Path: CC_Base_Root/CC_Base_Hip/CC_Base_Waist/CC_Base_Spine01/CC_Base_Spine02/CC_Base_R_Ribs/CC_Base_R_RibsTwist/CC_Base_R_Breast/CC_Base_R_BreastNub
    m_Weight: 1
  - m_Path: CC_Base_Teeth
    m_Weight: 1
  - m_Path: CC_Base_Tongue
    m_Weight: 1
  - m_Path: Dress
    m_Weight: 1
  - m_Path: High-heels
    m_Weight: 1
  - m_Path: Part_HairMesh_0
    m_Weight: 1
