%YAML 1.1
%TAG !u! tag:unity3d.com,2011:
--- !u!21 &2100000
Material:
  serializedVersion: 6
  m_ObjectHideFlags: 0
  m_PrefabParentObject: {fileID: 0}
  m_PrefabInternal: {fileID: 0}
  m_Name: heidi-RL_Body
  m_Shader: {fileID: 45, guid: 0000000000000000f000000000000000, type: 0}
  m_ShaderKeywords: _EMISSION _NORMALMAP _SPECGLOSSMAP
  m_LightmapFlags: 1
  m_CustomRenderQueue: -1
  stringTagMap: {}
  m_SavedProperties:
    serializedVersion: 2
    m_TexEnvs:
    - first:
        name: _AlphaTex
      second:
        m_Texture: {fileID: 0}
        m_Scale: {x: 1, y: 1}
        m_Offset: {x: 0, y: 0}
    - first:
        name: _BumpMap
      second:
        m_Texture: {fileID: 2800000, guid: 425778c8a59d66a449e7f70b81f6f880, type: 3}
        m_Scale: {x: 1, y: 1}
        m_Offset: {x: 0, y: 0}
    - first:
        name: _DetailAlbedoMap
      second:
        m_Texture: {fileID: 0}
        m_Scale: {x: 1, y: 1}
        m_Offset: {x: 0, y: 0}
    - first:
        name: _DetailMask
      second:
        m_Texture: {fileID: 0}
        m_Scale: {x: 1, y: 1}
        m_Offset: {x: 0, y: 0}
    - first:
        name: _DetailNormalMap
      second:
        m_Texture: {fileID: 0}
        m_Scale: {x: 1, y: 1}
        m_Offset: {x: 0, y: 0}
    - first:
        name: _EmissionMap
      second:
        m_Texture: {fileID: 0}
        m_Scale: {x: 1, y: 1}
        m_Offset: {x: 0, y: 0}
    - first:
        name: _MainTex
      second:
        m_Texture: {fileID: 2800000, guid: 82e6a15c66bd9ff48a7783574ab39a30, type: 3}
        m_Scale: {x: 1, y: 1}
        m_Offset: {x: 0, y: 0}
    - first:
        name: _MetallicGlossMap
      second:
        m_Texture: {fileID: 0}
        m_Scale: {x: 1, y: 1}
        m_Offset: {x: 0, y: 0}
    - first:
        name: _OcclusionMap
      second:
        m_Texture: {fileID: 0}
        m_Scale: {x: 1, y: 1}
        m_Offset: {x: 0, y: 0}
    - first:
        name: _ParallaxMap
      second:
        m_Texture: {fileID: 0}
        m_Scale: {x: 1, y: 1}
        m_Offset: {x: 0, y: 0}
    - first:
        name: _SpecGlossMap
      second:
        m_Texture: {fileID: 2800000, guid: 78a6e7160cbfd1b439ac0c4361c2767f, type: 3}
        m_Scale: {x: 1, y: 1}
        m_Offset: {x: 0, y: 0}
    m_Floats:
    - first:
        name: _BumpScale
      second: 1
    - first:
        name: _CullMode
      second: 2
    - first:
        name: _Cutoff
      second: 0.5
    - first:
        name: _DetailNormalMapScale
      second: 1
    - first:
        name: _DstBlend
      second: 0
    - first:
        name: _EmissionScaleUI
      second: 0
    - first:
        name: _GlossMapScale
      second: 0.24
    - first:
        name: _Glossiness
      second: 0.5
    - first:
        name: _GlossyReflections
      second: 1
    - first:
        name: _Metallic
      second: 0
    - first:
        name: _Mode
      second: 0
    - first:
        name: _OcclusionStrength
      second: 1
    - first:
        name: _Parallax
      second: 0.02
    - first:
        name: _PlaneReflectionBumpClamp
      second: 0.05
    - first:
        name: _PlaneReflectionBumpScale
      second: 0.4
    - first:
        name: _Shininess
      second: 0.078125
    - first:
        name: _SmoothnessInAlbedo
      second: 0
    - first:
        name: _SmoothnessTextureChannel
      second: 0
    - first:
        name: _SmoothnessTweak1
      second: 1
    - first:
        name: _SmoothnessTweak2
      second: 0
    - first:
        name: _SpecularHighlights
      second: 1
    - first:
        name: _SrcBlend
      second: 1
    - first:
        name: _UVSec
      second: 0
    - first:
        name: _ZWrite
      second: 1
    m_Colors:
    - first:
        name: _Color
      second: {r: 1, g: 1, b: 1, a: 1}
    - first:
        name: _EmissionColor
      second: {r: 0, g: 0, b: 0, a: 1}
    - first:
        name: _EmissionColorUI
      second: {r: 1, g: 1, b: 1, a: 1}
    - first:
        name: _SpecColor
      second: {r: 0.19999996, g: 0.19999996, b: 0.19999996, a: 1}
    - first:
        name: _SpecularMapColorTweak
      second: {r: 1, g: 1, b: 1, a: 1}
